G04 #@! TF.GenerationSoftware,KiCad,Pcbnew,5.0.0*
G04 #@! TF.CreationDate,2018-09-13T20:58:47-06:00*
G04 #@! TF.ProjectId,hygro-sensor,687967726F2D73656E736F722E6B6963,rev?*
G04 #@! TF.SameCoordinates,Original*
G04 #@! TF.FileFunction,Copper,L1,Top,Signal*
G04 #@! TF.FilePolarity,Positive*
%FSLAX46Y46*%
G04 Gerber Fmt 4.6, Leading zero omitted, Abs format (unit mm)*
G04 Created by KiCad (PCBNEW 5.0.0) date Thu Sep 13 20:58:47 2018*
%MOMM*%
%LPD*%
G01*
G04 APERTURE LIST*
G04 #@! TA.AperFunction,ComponentPad*
%ADD10C,1.750000*%
G04 #@! TD*
G04 #@! TA.AperFunction,SMDPad,CuDef*
%ADD11R,0.600000X0.900000*%
G04 #@! TD*
G04 #@! TA.AperFunction,SMDPad,CuDef*
%ADD12R,0.900000X0.600000*%
G04 #@! TD*
G04 #@! TA.AperFunction,SMDPad,CuDef*
%ADD13R,1.300000X0.700000*%
G04 #@! TD*
G04 #@! TA.AperFunction,ComponentPad*
%ADD14C,2.032000*%
G04 #@! TD*
G04 #@! TA.AperFunction,SMDPad,CuDef*
%ADD15R,5.100000X2.350000*%
G04 #@! TD*
G04 #@! TA.AperFunction,SMDPad,CuDef*
%ADD16R,0.700000X1.300000*%
G04 #@! TD*
G04 #@! TA.AperFunction,SMDPad,CuDef*
%ADD17R,1.700000X1.700000*%
G04 #@! TD*
G04 #@! TA.AperFunction,SMDPad,CuDef*
%ADD18R,0.700000X0.200000*%
G04 #@! TD*
G04 #@! TA.AperFunction,SMDPad,CuDef*
%ADD19R,0.200000X0.700000*%
G04 #@! TD*
G04 #@! TA.AperFunction,SMDPad,CuDef*
%ADD20R,0.280000X0.750000*%
G04 #@! TD*
G04 #@! TA.AperFunction,ComponentPad*
%ADD21C,1.250000*%
G04 #@! TD*
G04 #@! TA.AperFunction,SMDPad,CuDef*
%ADD22R,2.400000X1.500000*%
G04 #@! TD*
G04 #@! TA.AperFunction,SMDPad,CuDef*
%ADD23R,0.400000X0.800000*%
G04 #@! TD*
G04 #@! TA.AperFunction,ComponentPad*
%ADD24C,1.500000*%
G04 #@! TD*
G04 #@! TA.AperFunction,ComponentPad*
%ADD25C,1.800000*%
G04 #@! TD*
G04 #@! TA.AperFunction,ViaPad*
%ADD26C,0.800000*%
G04 #@! TD*
G04 #@! TA.AperFunction,Conductor*
%ADD27C,0.203200*%
G04 #@! TD*
G04 #@! TA.AperFunction,Conductor*
%ADD28C,0.635000*%
G04 #@! TD*
G04 #@! TA.AperFunction,Conductor*
%ADD29C,0.152400*%
G04 #@! TD*
G04 #@! TA.AperFunction,Conductor*
%ADD30C,0.406400*%
G04 #@! TD*
G04 #@! TA.AperFunction,Conductor*
%ADD31C,0.508000*%
G04 #@! TD*
G04 #@! TA.AperFunction,Conductor*
%ADD32C,0.254000*%
G04 #@! TD*
G04 #@! TA.AperFunction,Conductor*
%ADD33C,0.304800*%
G04 #@! TD*
G04 APERTURE END LIST*
D10*
G04 #@! TO.P,J1,2*
G04 #@! TO.N,Net-(J1-Pad2)*
X174500000Y-98450000D03*
G04 #@! TO.P,J1,1*
G04 #@! TO.N,GND*
X122500000Y-98450000D03*
G04 #@! TD*
D11*
G04 #@! TO.P,C2,2*
G04 #@! TO.N,VCC*
X133300000Y-100775000D03*
G04 #@! TO.P,C2,1*
G04 #@! TO.N,GND*
X131800000Y-100775000D03*
G04 #@! TD*
D12*
G04 #@! TO.P,C1,2*
G04 #@! TO.N,Net-(C1-Pad2)*
X174731068Y-92938421D03*
G04 #@! TO.P,C1,1*
G04 #@! TO.N,GND*
X174731068Y-91438421D03*
G04 #@! TD*
G04 #@! TO.P,C3,2*
G04 #@! TO.N,GND*
X173431068Y-91438421D03*
G04 #@! TO.P,C3,1*
G04 #@! TO.N,Net-(C3-Pad1)*
X173431068Y-92938421D03*
G04 #@! TD*
D13*
G04 #@! TO.P,C4,2*
G04 #@! TO.N,GND*
X169668568Y-90975921D03*
G04 #@! TO.P,C4,1*
G04 #@! TO.N,VCC*
X169668568Y-92875921D03*
G04 #@! TD*
D12*
G04 #@! TO.P,C5,2*
G04 #@! TO.N,GND*
X176100000Y-104842500D03*
G04 #@! TO.P,C5,1*
G04 #@! TO.N,VCC*
X176100000Y-103342500D03*
G04 #@! TD*
D14*
G04 #@! TO.P,J2,3*
G04 #@! TO.N,VCC*
X126627500Y-91550000D03*
G04 #@! TO.P,J2,2*
G04 #@! TO.N,Net-(J2-Pad2)*
X124087500Y-91550000D03*
G04 #@! TO.P,J2,1*
G04 #@! TO.N,GND*
X121547500Y-91550000D03*
G04 #@! TD*
D15*
G04 #@! TO.P,L1,2*
G04 #@! TO.N,Net-(L1-Pad2)*
X169700000Y-94975000D03*
G04 #@! TO.P,L1,1*
G04 #@! TO.N,Net-(C1-Pad2)*
X169700000Y-99125000D03*
G04 #@! TD*
D11*
G04 #@! TO.P,R1,2*
G04 #@! TO.N,Net-(C3-Pad1)*
X173331068Y-94088421D03*
G04 #@! TO.P,R1,1*
G04 #@! TO.N,Net-(C1-Pad2)*
X174831068Y-94088421D03*
G04 #@! TD*
D16*
G04 #@! TO.P,R2,2*
G04 #@! TO.N,/SCL*
X132557800Y-91625600D03*
G04 #@! TO.P,R2,1*
G04 #@! TO.N,VCC*
X130657800Y-91625600D03*
G04 #@! TD*
G04 #@! TO.P,R3,2*
G04 #@! TO.N,/SDA*
X132557800Y-93378200D03*
G04 #@! TO.P,R3,1*
G04 #@! TO.N,VCC*
X130657800Y-93378200D03*
G04 #@! TD*
D17*
G04 #@! TO.P,U1,TP*
G04 #@! TO.N,GND*
X132350000Y-96862500D03*
D18*
G04 #@! TO.P,U1,20*
G04 #@! TO.N,/DEGF0*
X130950000Y-97662500D03*
G04 #@! TO.P,U1,19*
G04 #@! TO.N,Net-(J2-Pad2)*
X130950000Y-97262500D03*
G04 #@! TO.P,U1,18*
G04 #@! TO.N,/COM3*
X130950000Y-96862500D03*
G04 #@! TO.P,U1,17*
G04 #@! TO.N,/COM2*
X130950000Y-96462500D03*
G04 #@! TO.P,U1,16*
G04 #@! TO.N,/COM1*
X130950000Y-96062500D03*
D19*
G04 #@! TO.P,U1,15*
G04 #@! TO.N,/COM0*
X131550000Y-95462500D03*
G04 #@! TO.P,U1,14*
G04 #@! TO.N,/SCL*
X131950000Y-95462500D03*
G04 #@! TO.P,U1,13*
G04 #@! TO.N,/SDA*
X132350000Y-95462500D03*
G04 #@! TO.P,U1,12*
G04 #@! TO.N,Net-(U1-Pad12)*
X132750000Y-95462500D03*
G04 #@! TO.P,U1,11*
G04 #@! TO.N,Net-(U1-Pad11)*
X133150000Y-95462500D03*
D18*
G04 #@! TO.P,U1,10*
G04 #@! TO.N,Net-(U1-Pad10)*
X133750000Y-96062500D03*
G04 #@! TO.P,U1,9*
G04 #@! TO.N,/PCBA3*
X133750000Y-96462500D03*
G04 #@! TO.P,U1,8*
G04 #@! TO.N,/DEGF3*
X133750000Y-96862500D03*
G04 #@! TO.P,U1,7*
G04 #@! TO.N,/PCBA2*
X133750000Y-97262500D03*
G04 #@! TO.P,U1,6*
G04 #@! TO.N,/DEGF2*
X133750000Y-97662500D03*
D19*
G04 #@! TO.P,U1,5*
G04 #@! TO.N,/PCBA1*
X133150000Y-98262500D03*
G04 #@! TO.P,U1,4*
G04 #@! TO.N,VCC*
X132750000Y-98262500D03*
G04 #@! TO.P,U1,3*
G04 #@! TO.N,GND*
X132350000Y-98262500D03*
G04 #@! TO.P,U1,2*
G04 #@! TO.N,/DEGF1*
X131950000Y-98262500D03*
G04 #@! TO.P,U1,1*
G04 #@! TO.N,/PCBA0*
X131550000Y-98262500D03*
G04 #@! TD*
D20*
G04 #@! TO.P,U2,6*
G04 #@! TO.N,GND*
X171156068Y-91350921D03*
G04 #@! TO.P,U2,5*
G04 #@! TO.N,Net-(U2-Pad5)*
X171656068Y-91350921D03*
G04 #@! TO.P,U2,4*
G04 #@! TO.N,GND*
X172156068Y-91350921D03*
G04 #@! TO.P,U2,3*
G04 #@! TO.N,Net-(C3-Pad1)*
X172156068Y-92500921D03*
G04 #@! TO.P,U2,2*
G04 #@! TO.N,Net-(L1-Pad2)*
X171656068Y-92500921D03*
G04 #@! TO.P,U2,1*
G04 #@! TO.N,VCC*
X171156068Y-92500921D03*
G04 #@! TD*
D21*
G04 #@! TO.P,U3,12*
G04 #@! TO.N,/PCBA3*
X156737500Y-92112500D03*
G04 #@! TO.P,U3,11*
G04 #@! TO.N,/DEGF3*
X155237500Y-92112500D03*
G04 #@! TO.P,U3,10*
G04 #@! TO.N,/PCBA2*
X153737500Y-92112500D03*
G04 #@! TO.P,U3,9*
G04 #@! TO.N,/DEGF2*
X152237500Y-92112500D03*
G04 #@! TO.P,U3,8*
G04 #@! TO.N,/PCBA1*
X150737500Y-92112500D03*
G04 #@! TO.P,U3,7*
G04 #@! TO.N,/DEGF1*
X149237500Y-92112500D03*
G04 #@! TO.P,U3,6*
G04 #@! TO.N,/PCBA0*
X147737500Y-92112500D03*
G04 #@! TO.P,U3,5*
G04 #@! TO.N,/DEGF0*
X146237500Y-92112500D03*
G04 #@! TO.P,U3,4*
G04 #@! TO.N,/COM3*
X144737500Y-92112500D03*
G04 #@! TO.P,U3,3*
G04 #@! TO.N,/COM2*
X143237500Y-92112500D03*
G04 #@! TO.P,U3,2*
G04 #@! TO.N,/COM1*
X141737500Y-92112500D03*
G04 #@! TO.P,U3,1*
G04 #@! TO.N,/COM0*
X140237500Y-92112500D03*
G04 #@! TD*
D22*
G04 #@! TO.P,U4,TP*
G04 #@! TO.N,Net-(U4-PadTP)*
X173587500Y-104092500D03*
D23*
G04 #@! TO.P,U4,6*
G04 #@! TO.N,/SCL*
X172587500Y-102592500D03*
G04 #@! TO.P,U4,5*
G04 #@! TO.N,VCC*
X173587500Y-102592500D03*
G04 #@! TO.P,U4,4*
G04 #@! TO.N,Net-(U4-Pad4)*
X174587500Y-102592500D03*
G04 #@! TO.P,U4,3*
G04 #@! TO.N,Net-(U4-Pad3)*
X174587500Y-105592500D03*
G04 #@! TO.P,U4,2*
G04 #@! TO.N,GND*
X173587500Y-105592500D03*
G04 #@! TO.P,U4,1*
G04 #@! TO.N,/SDA*
X172587500Y-105592500D03*
G04 #@! TD*
D16*
G04 #@! TO.P,R4,2*
G04 #@! TO.N,Net-(J2-Pad2)*
X123241000Y-93937000D03*
G04 #@! TO.P,R4,1*
G04 #@! TO.N,VCC*
X125141000Y-93937000D03*
G04 #@! TD*
D24*
G04 #@! TO.P,SW1,1*
G04 #@! TO.N,Net-(C1-Pad2)*
X162850000Y-96450000D03*
G04 #@! TO.P,SW1,2*
G04 #@! TO.N,Net-(J1-Pad2)*
X162850000Y-98450000D03*
G04 #@! TO.P,SW1,3*
G04 #@! TO.N,Net-(SW1-Pad3)*
X162850000Y-100450000D03*
G04 #@! TO.P,SW1,4*
G04 #@! TO.N,Net-(C1-Pad2)*
X164850000Y-96450000D03*
G04 #@! TO.P,SW1,5*
G04 #@! TO.N,Net-(J1-Pad2)*
X164850000Y-98450000D03*
G04 #@! TO.P,SW1,6*
G04 #@! TO.N,Net-(SW1-Pad6)*
X164850000Y-100450000D03*
D25*
G04 #@! TO.P,SW1,7*
G04 #@! TO.N,N/C*
X163850000Y-93650000D03*
G04 #@! TO.P,SW1,8*
X163850000Y-103250000D03*
G04 #@! TD*
D26*
G04 #@! TO.N,GND*
X158000000Y-93000000D03*
X158000000Y-95000000D03*
X156000000Y-95000000D03*
X156000000Y-97000000D03*
X154000000Y-97000000D03*
X154000000Y-99000000D03*
X152000000Y-99000000D03*
X150000000Y-99000000D03*
X148000000Y-99000000D03*
X146000000Y-99000000D03*
X144000000Y-99000000D03*
X142000000Y-99000000D03*
X140000000Y-99000000D03*
X140000000Y-101000000D03*
X142000000Y-101000000D03*
X144000000Y-101000000D03*
X146000000Y-101000000D03*
X148000000Y-101000000D03*
X150000000Y-101000000D03*
X152000000Y-101000000D03*
X154000000Y-101000000D03*
X156000000Y-101000000D03*
X158000000Y-101000000D03*
X158000000Y-99000000D03*
X156000000Y-99000000D03*
X158000000Y-97000000D03*
X167400000Y-106000000D03*
X166000000Y-106000000D03*
X164000000Y-106000000D03*
X162000000Y-106000000D03*
X160000000Y-106000000D03*
X158000000Y-106000000D03*
X156000000Y-106000000D03*
X154000000Y-106000000D03*
X152000000Y-106000000D03*
X150000000Y-106000000D03*
X148000000Y-106000000D03*
X146000000Y-106000000D03*
X144000000Y-106000000D03*
X142000000Y-106000000D03*
X140000000Y-106000000D03*
X138000000Y-106000000D03*
X136000000Y-106000000D03*
X134000000Y-106000000D03*
X132000000Y-106000000D03*
X130000000Y-106000000D03*
X128000000Y-106000000D03*
X126000000Y-106000000D03*
X124000000Y-106000000D03*
X122000000Y-106000000D03*
X122000000Y-104000000D03*
X122000000Y-102000000D03*
X124000000Y-102000000D03*
X126000000Y-102000000D03*
X128000000Y-102000000D03*
X128000000Y-104000000D03*
X130000000Y-104000000D03*
X130000000Y-102000000D03*
X132000000Y-102000000D03*
X132000000Y-104000000D03*
X134000000Y-104000000D03*
X134000000Y-102000000D03*
X130000000Y-100500000D03*
X128000000Y-100500000D03*
X126000000Y-100500000D03*
X124000000Y-100500000D03*
X122000000Y-100500000D03*
X126000000Y-99000000D03*
X124000000Y-99000000D03*
X124000000Y-97000000D03*
X122000000Y-97000000D03*
X122000000Y-95000000D03*
X122000000Y-93500000D03*
X129000000Y-90794400D03*
X126000000Y-104000000D03*
X124000000Y-104000000D03*
X125588000Y-95181600D03*
X126565685Y-93500000D03*
X160000000Y-93000000D03*
X160000000Y-91500000D03*
X164200000Y-91500000D03*
X165700000Y-93000000D03*
X160000000Y-95000000D03*
X160000000Y-97000000D03*
X160000000Y-99000000D03*
X160000000Y-101000000D03*
X160000000Y-103000000D03*
X158000000Y-103000000D03*
X156000000Y-103000000D03*
X168000000Y-101000000D03*
X167200000Y-91000000D03*
X176200000Y-93000000D03*
X176200000Y-91000000D03*
X162000000Y-91500000D03*
X165700000Y-94400000D03*
X176200000Y-95000000D03*
X176200000Y-97000000D03*
X173200000Y-99500000D03*
X176200000Y-99500000D03*
X162000000Y-93000000D03*
G04 #@! TO.N,VCC*
X136840200Y-95740400D03*
X136840200Y-100769600D03*
G04 #@! TO.N,/SCL*
X135887603Y-95740400D03*
X139710400Y-104630400D03*
G04 #@! TO.N,/SDA*
X134935200Y-95740400D03*
X138999200Y-105316200D03*
G04 #@! TO.N,/PCBA0*
X127418254Y-98570500D03*
G04 #@! TO.N,/DEGF1*
X128109598Y-99225567D03*
G04 #@! TO.N,/PCBA1*
X150750000Y-98275000D03*
G04 #@! TO.N,/DEGF2*
X151404000Y-97573528D03*
G04 #@! TO.N,/PCBA2*
X152058000Y-96870539D03*
G04 #@! TO.N,/DEGF3*
X152712000Y-96166820D03*
G04 #@! TO.N,/PCBA3*
X153366000Y-95469701D03*
G04 #@! TO.N,/COM0*
X128812500Y-92887500D03*
G04 #@! TO.N,/COM1*
X128112500Y-93537500D03*
G04 #@! TO.N,/COM2*
X127425000Y-94200000D03*
G04 #@! TO.N,/COM3*
X126725000Y-94862500D03*
G04 #@! TO.N,/DEGF0*
X126725000Y-97916500D03*
G04 #@! TD*
D27*
G04 #@! TO.N,GND*
X132350000Y-98262500D02*
X132350000Y-96862500D01*
X176100000Y-105630000D02*
X176100000Y-104842500D01*
X175400000Y-106330000D02*
X176100000Y-105630000D01*
X173587500Y-106317500D02*
X173587500Y-105592500D01*
X173600000Y-106330000D02*
X173587500Y-106317500D01*
X173600000Y-106330000D02*
X175400000Y-106330000D01*
X171400000Y-106330000D02*
X173600000Y-106330000D01*
D28*
X168400000Y-106330000D02*
X171400000Y-106330000D01*
D27*
X158000000Y-95000000D02*
X156000000Y-95000000D01*
X156000000Y-97000000D02*
X154000000Y-97000000D01*
X154000000Y-99000000D02*
X152000000Y-99000000D01*
X150000000Y-99000000D02*
X148000000Y-99000000D01*
X146000000Y-99000000D02*
X144000000Y-99000000D01*
X142000000Y-99000000D02*
X140000000Y-99000000D01*
X140000000Y-101000000D02*
X142000000Y-101000000D01*
X144000000Y-101000000D02*
X146000000Y-101000000D01*
X148000000Y-101000000D02*
X150000000Y-101000000D01*
X152000000Y-101000000D02*
X154000000Y-101000000D01*
X156000000Y-101000000D02*
X158000000Y-101000000D01*
X158000000Y-99000000D02*
X156000000Y-99000000D01*
X167400000Y-106000000D02*
X166000000Y-106000000D01*
X164000000Y-106000000D02*
X162000000Y-106000000D01*
X160000000Y-106000000D02*
X158000000Y-106000000D01*
X156000000Y-106000000D02*
X154000000Y-106000000D01*
X152000000Y-106000000D02*
X150000000Y-106000000D01*
X150000000Y-106000000D02*
X148000000Y-106000000D01*
X146000000Y-106000000D02*
X144000000Y-106000000D01*
X140000000Y-106000000D02*
X138000000Y-106000000D01*
X136000000Y-106000000D02*
X134000000Y-106000000D01*
X132000000Y-106000000D02*
X130000000Y-106000000D01*
X128000000Y-106000000D02*
X126000000Y-106000000D01*
X124000000Y-106000000D02*
X122000000Y-106000000D01*
X122000000Y-104000000D02*
X122000000Y-102000000D01*
X124000000Y-102000000D02*
X126000000Y-102000000D01*
X128000000Y-102000000D02*
X128000000Y-104000000D01*
X130000000Y-104000000D02*
X130000000Y-102000000D01*
X132000000Y-102000000D02*
X132000000Y-104000000D01*
X134000000Y-104000000D02*
X134000000Y-102000000D01*
X130000000Y-102000000D02*
X130000000Y-100500000D01*
X128000000Y-100500000D02*
X126000000Y-100500000D01*
X124000000Y-100500000D02*
X122000000Y-100500000D01*
X126000000Y-99000000D02*
X124000000Y-99000000D01*
X124000000Y-97000000D02*
X122000000Y-97000000D01*
X122000000Y-95000000D02*
X122000000Y-93500000D01*
X128000000Y-104000000D02*
X126000000Y-104000000D01*
X168295685Y-106330000D02*
X168400000Y-106330000D01*
X167965685Y-106000000D02*
X168295685Y-106330000D01*
X167400000Y-106000000D02*
X167965685Y-106000000D01*
X158000000Y-93000000D02*
X160000000Y-93000000D01*
X160000000Y-91500000D02*
X162000000Y-91500000D01*
X164200000Y-91500000D02*
X165700000Y-93000000D01*
X160000000Y-93000000D02*
X160000000Y-95000000D01*
X160000000Y-97000000D02*
X160000000Y-99000000D01*
X160000000Y-101000000D02*
X160000000Y-103000000D01*
X158000000Y-103000000D02*
X156000000Y-103000000D01*
X176200000Y-93000000D02*
X176200000Y-91000000D01*
X176200000Y-97000000D02*
X176200000Y-99500000D01*
X176200000Y-95000000D02*
X176200000Y-97000000D01*
X160000000Y-93000000D02*
X162000000Y-93000000D01*
D29*
X169644489Y-91000000D02*
X169668568Y-90975921D01*
X167200000Y-91000000D02*
X169644489Y-91000000D01*
D30*
G04 #@! TO.N,Net-(C1-Pad2)*
X174831068Y-93038421D02*
X174731068Y-92938421D01*
X174831068Y-94088421D02*
X174831068Y-93038421D01*
D31*
X168325000Y-99125000D02*
X169700000Y-99125000D01*
X171075000Y-99125000D02*
X174831068Y-95368932D01*
X174831068Y-95046421D02*
X174831068Y-94088421D01*
X174831068Y-95368932D02*
X174831068Y-95046421D01*
X169700000Y-99125000D02*
X171075000Y-99125000D01*
D30*
X168825000Y-99125000D02*
X169700000Y-99125000D01*
X162850000Y-96450000D02*
X164850000Y-96450000D01*
X167525000Y-99125000D02*
X169700000Y-99125000D01*
X164850000Y-96450000D02*
X167525000Y-99125000D01*
D27*
G04 #@! TO.N,VCC*
X132750000Y-98262500D02*
X132750000Y-99500000D01*
X133300000Y-100050000D02*
X133300000Y-100775000D01*
X132750000Y-99500000D02*
X133300000Y-100050000D01*
D32*
X169668568Y-92875921D02*
X171156921Y-92875921D01*
X171156068Y-92875068D02*
X171156068Y-92500921D01*
X171156921Y-92875921D02*
X171156068Y-92875068D01*
D33*
X126702500Y-91625000D02*
X126627500Y-91550000D01*
D30*
X130657800Y-90848400D02*
X130657800Y-91625600D01*
X130886801Y-90619399D02*
X130657800Y-90848400D01*
X130582200Y-91550000D02*
X130657800Y-91625600D01*
X126627500Y-91550000D02*
X130582200Y-91550000D01*
X130657800Y-91625600D02*
X130657800Y-93378200D01*
X136713200Y-90619399D02*
X130886801Y-90619399D01*
X133305400Y-100769600D02*
X133300000Y-100775000D01*
X136840200Y-100769600D02*
X133305400Y-100769600D01*
X136840200Y-95740400D02*
X136840200Y-95174715D01*
X136840200Y-95174715D02*
X136840200Y-90619399D01*
X136840200Y-90619399D02*
X136713200Y-90619399D01*
X175293900Y-101830000D02*
X176100000Y-102636100D01*
X176100000Y-102636100D02*
X176100000Y-103342500D01*
X173587500Y-102592500D02*
X173587500Y-101842500D01*
X170500000Y-101830000D02*
X173600000Y-101830000D01*
X173587500Y-101842500D02*
X173600000Y-101830000D01*
X173600000Y-101830000D02*
X175293900Y-101830000D01*
D28*
X168400000Y-101830000D02*
X171400000Y-101830000D01*
D27*
X126604000Y-92159000D02*
X126627500Y-91550000D01*
X125141000Y-93036500D02*
X126627500Y-91550000D01*
X125141000Y-93937000D02*
X125141000Y-93036500D01*
D30*
X167125921Y-92875921D02*
X169668568Y-92875921D01*
X136840200Y-90619399D02*
X164869399Y-90619399D01*
X164869399Y-90619399D02*
X167125921Y-92875921D01*
X137792602Y-100769600D02*
X136840200Y-100769600D01*
X140993002Y-103970000D02*
X137792602Y-100769600D01*
X168400000Y-101830000D02*
X163237200Y-101830000D01*
X161097200Y-103970000D02*
X140993002Y-103970000D01*
X163237200Y-101830000D02*
X161097200Y-103970000D01*
D32*
G04 #@! TO.N,Net-(C3-Pad1)*
X173331068Y-93038421D02*
X173431068Y-92938421D01*
X173331068Y-94088421D02*
X173331068Y-93038421D01*
X173431068Y-92938421D02*
X172157079Y-92938421D01*
X172156068Y-92937410D02*
X172156068Y-92500921D01*
X172157079Y-92938421D02*
X172156068Y-92937410D01*
D27*
G04 #@! TO.N,Net-(J2-Pad2)*
X130950000Y-97262500D02*
X126612500Y-97262500D01*
X126612500Y-97262500D02*
X124087500Y-94737500D01*
X123794200Y-93937000D02*
X124087500Y-93937000D01*
X124087500Y-94737500D02*
X124087500Y-93937000D01*
X123241000Y-93937000D02*
X123794200Y-93937000D01*
X124087500Y-93937000D02*
X124087500Y-91550000D01*
G04 #@! TO.N,/SCL*
X131950000Y-95462500D02*
X131950000Y-95125000D01*
X132557800Y-91742400D02*
X132557800Y-91625600D01*
X131950000Y-95462500D02*
X131950000Y-92350200D01*
X131950000Y-92350200D02*
X132557800Y-91742400D01*
X132557800Y-91625600D02*
X133111000Y-91625600D01*
X133111000Y-91625600D02*
X134097000Y-91625600D01*
X134097000Y-91625600D02*
X135887603Y-93416203D01*
X135887603Y-93416203D02*
X135887603Y-95740400D01*
X172137500Y-102592500D02*
X172587500Y-102592500D01*
X171400000Y-103330000D02*
X172137500Y-102592500D01*
D28*
X168400000Y-103330000D02*
X171400000Y-103330000D01*
D27*
X168400000Y-103330000D02*
X167277400Y-104452600D01*
X167277400Y-104452600D02*
X167099600Y-104630400D01*
X167099600Y-104630400D02*
X139710400Y-104630400D01*
G04 #@! TO.N,/SDA*
X132350000Y-95462500D02*
X132350000Y-94909300D01*
X132557800Y-94701500D02*
X132557800Y-93378200D01*
X132350000Y-94909300D02*
X132557800Y-94701500D01*
X132557800Y-93378200D02*
X134097000Y-93378200D01*
X134097000Y-93378200D02*
X134935200Y-94216400D01*
X134935200Y-94216400D02*
X134935200Y-95740400D01*
X172162500Y-105592500D02*
X172587500Y-105592500D01*
X171400000Y-104830000D02*
X172162500Y-105592500D01*
D28*
X168400000Y-104830000D02*
X171400000Y-104830000D01*
D27*
X168400000Y-104830000D02*
X167913800Y-105316200D01*
X167913800Y-105316200D02*
X138999200Y-105316200D01*
G04 #@! TO.N,/PCBA0*
X130938800Y-98570500D02*
X127418254Y-98570500D01*
X131550000Y-98262500D02*
X131246800Y-98262500D01*
X131246800Y-98262500D02*
X130938800Y-98570500D01*
G04 #@! TO.N,/DEGF1*
X131540133Y-99225567D02*
X128109598Y-99225567D01*
X131950000Y-98262500D02*
X131950000Y-98815700D01*
X131950000Y-98815700D02*
X131540133Y-99225567D01*
G04 #@! TO.N,/PCBA1*
X133150000Y-98262500D02*
X150737500Y-98262500D01*
X150737500Y-98262500D02*
X150750000Y-98275000D01*
G04 #@! TO.N,/DEGF2*
X133750000Y-97662500D02*
X150025000Y-97662500D01*
X150025000Y-97662500D02*
X150113972Y-97573528D01*
X150113972Y-97573528D02*
X151404000Y-97573528D01*
G04 #@! TO.N,/PCBA2*
X133750000Y-97262500D02*
X149912500Y-97262500D01*
X149912500Y-97262500D02*
X150304461Y-96870539D01*
X150304461Y-96870539D02*
X152058000Y-96870539D01*
G04 #@! TO.N,/DEGF3*
X133750000Y-96862500D02*
X149750000Y-96862500D01*
X149750000Y-96862500D02*
X150445680Y-96166820D01*
X150445680Y-96166820D02*
X152712000Y-96166820D01*
G04 #@! TO.N,/PCBA3*
X133750000Y-96462500D02*
X149600000Y-96462500D01*
X149600000Y-96462500D02*
X150592799Y-95469701D01*
X150592799Y-95469701D02*
X153366000Y-95469701D01*
G04 #@! TO.N,/COM0*
X128812500Y-94212500D02*
X128812500Y-92887500D01*
X131550000Y-95462500D02*
X129325000Y-95462500D01*
X128812500Y-94950000D02*
X128812500Y-94212500D01*
X129325000Y-95462500D02*
X128812500Y-94950000D01*
G04 #@! TO.N,/COM1*
X128112500Y-95231684D02*
X128112500Y-93537500D01*
X128943316Y-96062500D02*
X128112500Y-95231684D01*
X130950000Y-96062500D02*
X128943316Y-96062500D01*
G04 #@! TO.N,/COM2*
X127425000Y-95047092D02*
X127425000Y-94200000D01*
X127425000Y-95625000D02*
X127425000Y-95047092D01*
X130950000Y-96462500D02*
X128262500Y-96462500D01*
X128262500Y-96462500D02*
X127425000Y-95625000D01*
G04 #@! TO.N,/COM3*
X126725000Y-95512500D02*
X126725000Y-94850000D01*
X126725000Y-96012500D02*
X126725000Y-95512500D01*
X130950000Y-96862500D02*
X127575000Y-96862500D01*
X127575000Y-96862500D02*
X126725000Y-96012500D01*
G04 #@! TO.N,/DEGF0*
X126725000Y-97916500D02*
X126758500Y-97916500D01*
X126725000Y-97916500D02*
X128783500Y-97916500D01*
X129037500Y-97662500D02*
X130950000Y-97662500D01*
X128783500Y-97916500D02*
X129037500Y-97662500D01*
D32*
G04 #@! TO.N,Net-(L1-Pad2)*
X169810989Y-94975000D02*
X169700000Y-94975000D01*
X171656068Y-93129921D02*
X169810989Y-94975000D01*
X171656068Y-92500921D02*
X171656068Y-93129921D01*
G04 #@! TD*
D29*
G04 #@! TO.N,GND*
G36*
X120835866Y-90437331D02*
X120791858Y-90466736D01*
X120681103Y-90647682D01*
X121547500Y-91514079D01*
X122413897Y-90647682D01*
X122303142Y-90466736D01*
X121987683Y-90328600D01*
X123783924Y-90328600D01*
X123382491Y-90494879D01*
X123032379Y-90844991D01*
X122842900Y-91302434D01*
X122842900Y-91305794D01*
X122660169Y-90838366D01*
X122630764Y-90794358D01*
X122449818Y-90683603D01*
X121583421Y-91550000D01*
X122449818Y-92416397D01*
X122630764Y-92305642D01*
X122837477Y-91833575D01*
X122842900Y-91562982D01*
X122842900Y-91797566D01*
X123032379Y-92255009D01*
X123382491Y-92605121D01*
X123757300Y-92760372D01*
X123757300Y-93124418D01*
X123755811Y-93122189D01*
X123680195Y-93071664D01*
X123591000Y-93053922D01*
X122891000Y-93053922D01*
X122801805Y-93071664D01*
X122726189Y-93122189D01*
X122675664Y-93197805D01*
X122657922Y-93287000D01*
X122657922Y-94587000D01*
X122675664Y-94676195D01*
X122726189Y-94751811D01*
X122801805Y-94802336D01*
X122891000Y-94820078D01*
X123591000Y-94820078D01*
X123680195Y-94802336D01*
X123753928Y-94753069D01*
X123776458Y-94866337D01*
X123783435Y-94876778D01*
X123849439Y-94975560D01*
X123877009Y-94993982D01*
X126317776Y-97434750D01*
X126192099Y-97560427D01*
X126096400Y-97791464D01*
X126096400Y-98041536D01*
X126192099Y-98272573D01*
X126368927Y-98449401D01*
X126599964Y-98545100D01*
X126789654Y-98545100D01*
X126789654Y-98695536D01*
X126885353Y-98926573D01*
X127062181Y-99103401D01*
X127293218Y-99199100D01*
X127480998Y-99199100D01*
X127480998Y-99350603D01*
X127576697Y-99581640D01*
X127753525Y-99758468D01*
X127984562Y-99854167D01*
X128234634Y-99854167D01*
X128465671Y-99758468D01*
X128642499Y-99581640D01*
X128653216Y-99555767D01*
X131507611Y-99555767D01*
X131540133Y-99562236D01*
X131572655Y-99555767D01*
X131583550Y-99553600D01*
X131589055Y-99552505D01*
X131668971Y-99536609D01*
X131778194Y-99463628D01*
X131796617Y-99436056D01*
X132160489Y-99072184D01*
X132188061Y-99053761D01*
X132261042Y-98944538D01*
X132275674Y-98870976D01*
X132324600Y-98822050D01*
X132324600Y-98287900D01*
X132304600Y-98287900D01*
X132304600Y-98237100D01*
X132324600Y-98237100D01*
X132324600Y-96887900D01*
X132304600Y-96887900D01*
X132304600Y-96837100D01*
X132324600Y-96837100D01*
X132324600Y-96817100D01*
X132375400Y-96817100D01*
X132375400Y-96837100D01*
X132395400Y-96837100D01*
X132395400Y-96887900D01*
X132375400Y-96887900D01*
X132375400Y-98237100D01*
X132395400Y-98237100D01*
X132395400Y-98287900D01*
X132375400Y-98287900D01*
X132375400Y-98822050D01*
X132419800Y-98866450D01*
X132419801Y-99467473D01*
X132413331Y-99500000D01*
X132438958Y-99628837D01*
X132493517Y-99710490D01*
X132493519Y-99710492D01*
X132511940Y-99738061D01*
X132539509Y-99756482D01*
X132899946Y-100116919D01*
X132835189Y-100160189D01*
X132784664Y-100235805D01*
X132766922Y-100325000D01*
X132766922Y-101225000D01*
X132784664Y-101314195D01*
X132835189Y-101389811D01*
X132910805Y-101440336D01*
X133000000Y-101458078D01*
X133600000Y-101458078D01*
X133689195Y-101440336D01*
X133764811Y-101389811D01*
X133815336Y-101314195D01*
X133833078Y-101225000D01*
X133833078Y-101201400D01*
X136383026Y-101201400D01*
X136484127Y-101302501D01*
X136715164Y-101398200D01*
X136965236Y-101398200D01*
X137196273Y-101302501D01*
X137297374Y-101201400D01*
X137613745Y-101201400D01*
X140657604Y-104245260D01*
X140681692Y-104281310D01*
X140709963Y-104300200D01*
X140254018Y-104300200D01*
X140243301Y-104274327D01*
X140066473Y-104097499D01*
X139835436Y-104001800D01*
X139585364Y-104001800D01*
X139354327Y-104097499D01*
X139177499Y-104274327D01*
X139081800Y-104505364D01*
X139081800Y-104687600D01*
X138874164Y-104687600D01*
X138643127Y-104783299D01*
X138466299Y-104960127D01*
X138370600Y-105191164D01*
X138370600Y-105441236D01*
X138466299Y-105672273D01*
X138643127Y-105849101D01*
X138874164Y-105944800D01*
X139124236Y-105944800D01*
X139355273Y-105849101D01*
X139532101Y-105672273D01*
X139542818Y-105646400D01*
X167881278Y-105646400D01*
X167913800Y-105652869D01*
X167946322Y-105646400D01*
X168042638Y-105627242D01*
X168151861Y-105554261D01*
X168170284Y-105526689D01*
X168325078Y-105371895D01*
X168346218Y-105376100D01*
X169224880Y-105376100D01*
X169225135Y-106571400D01*
X120328600Y-106571400D01*
X120328600Y-100870250D01*
X131220600Y-100870250D01*
X131220600Y-101280576D01*
X131263136Y-101383267D01*
X131341733Y-101461864D01*
X131444424Y-101504400D01*
X131704750Y-101504400D01*
X131774600Y-101434550D01*
X131774600Y-100800400D01*
X131825400Y-100800400D01*
X131825400Y-101434550D01*
X131895250Y-101504400D01*
X132155576Y-101504400D01*
X132258267Y-101461864D01*
X132336864Y-101383267D01*
X132379400Y-101280576D01*
X132379400Y-100870250D01*
X132309550Y-100800400D01*
X131825400Y-100800400D01*
X131774600Y-100800400D01*
X131290450Y-100800400D01*
X131220600Y-100870250D01*
X120328600Y-100870250D01*
X120328600Y-100269424D01*
X131220600Y-100269424D01*
X131220600Y-100679750D01*
X131290450Y-100749600D01*
X131774600Y-100749600D01*
X131774600Y-100115450D01*
X131825400Y-100115450D01*
X131825400Y-100749600D01*
X132309550Y-100749600D01*
X132379400Y-100679750D01*
X132379400Y-100269424D01*
X132336864Y-100166733D01*
X132258267Y-100088136D01*
X132155576Y-100045600D01*
X131895250Y-100045600D01*
X131825400Y-100115450D01*
X131774600Y-100115450D01*
X131704750Y-100045600D01*
X131444424Y-100045600D01*
X131341733Y-100088136D01*
X131263136Y-100166733D01*
X131220600Y-100269424D01*
X120328600Y-100269424D01*
X120328600Y-99250639D01*
X121735282Y-99250639D01*
X121828877Y-99416934D01*
X122249993Y-99600158D01*
X122709170Y-99608281D01*
X123136503Y-99440066D01*
X123171123Y-99416934D01*
X123264718Y-99250639D01*
X122500000Y-98485921D01*
X121735282Y-99250639D01*
X120328600Y-99250639D01*
X120328600Y-98659170D01*
X121341719Y-98659170D01*
X121509934Y-99086503D01*
X121533066Y-99121123D01*
X121699361Y-99214718D01*
X122464079Y-98450000D01*
X122535921Y-98450000D01*
X123300639Y-99214718D01*
X123466934Y-99121123D01*
X123650158Y-98700007D01*
X123658281Y-98240830D01*
X123490066Y-97813497D01*
X123466934Y-97778877D01*
X123300639Y-97685282D01*
X122535921Y-98450000D01*
X122464079Y-98450000D01*
X121699361Y-97685282D01*
X121533066Y-97778877D01*
X121349842Y-98199993D01*
X121341719Y-98659170D01*
X120328600Y-98659170D01*
X120328600Y-97649361D01*
X121735282Y-97649361D01*
X122500000Y-98414079D01*
X123264718Y-97649361D01*
X123171123Y-97483066D01*
X122750007Y-97299842D01*
X122290830Y-97291719D01*
X121863497Y-97459934D01*
X121828877Y-97483066D01*
X121735282Y-97649361D01*
X120328600Y-97649361D01*
X120328600Y-92452318D01*
X120681103Y-92452318D01*
X120791858Y-92633264D01*
X121263925Y-92839977D01*
X121779164Y-92850303D01*
X122259134Y-92662669D01*
X122303142Y-92633264D01*
X122413897Y-92452318D01*
X121547500Y-91585921D01*
X120681103Y-92452318D01*
X120328600Y-92452318D01*
X120328600Y-91989894D01*
X120434831Y-92261634D01*
X120464236Y-92305642D01*
X120645182Y-92416397D01*
X121511579Y-91550000D01*
X120645182Y-90683603D01*
X120464236Y-90794358D01*
X120328600Y-91104108D01*
X120328600Y-90328600D01*
X121114001Y-90328600D01*
X120835866Y-90437331D01*
X120835866Y-90437331D01*
G37*
X120835866Y-90437331D02*
X120791858Y-90466736D01*
X120681103Y-90647682D01*
X121547500Y-91514079D01*
X122413897Y-90647682D01*
X122303142Y-90466736D01*
X121987683Y-90328600D01*
X123783924Y-90328600D01*
X123382491Y-90494879D01*
X123032379Y-90844991D01*
X122842900Y-91302434D01*
X122842900Y-91305794D01*
X122660169Y-90838366D01*
X122630764Y-90794358D01*
X122449818Y-90683603D01*
X121583421Y-91550000D01*
X122449818Y-92416397D01*
X122630764Y-92305642D01*
X122837477Y-91833575D01*
X122842900Y-91562982D01*
X122842900Y-91797566D01*
X123032379Y-92255009D01*
X123382491Y-92605121D01*
X123757300Y-92760372D01*
X123757300Y-93124418D01*
X123755811Y-93122189D01*
X123680195Y-93071664D01*
X123591000Y-93053922D01*
X122891000Y-93053922D01*
X122801805Y-93071664D01*
X122726189Y-93122189D01*
X122675664Y-93197805D01*
X122657922Y-93287000D01*
X122657922Y-94587000D01*
X122675664Y-94676195D01*
X122726189Y-94751811D01*
X122801805Y-94802336D01*
X122891000Y-94820078D01*
X123591000Y-94820078D01*
X123680195Y-94802336D01*
X123753928Y-94753069D01*
X123776458Y-94866337D01*
X123783435Y-94876778D01*
X123849439Y-94975560D01*
X123877009Y-94993982D01*
X126317776Y-97434750D01*
X126192099Y-97560427D01*
X126096400Y-97791464D01*
X126096400Y-98041536D01*
X126192099Y-98272573D01*
X126368927Y-98449401D01*
X126599964Y-98545100D01*
X126789654Y-98545100D01*
X126789654Y-98695536D01*
X126885353Y-98926573D01*
X127062181Y-99103401D01*
X127293218Y-99199100D01*
X127480998Y-99199100D01*
X127480998Y-99350603D01*
X127576697Y-99581640D01*
X127753525Y-99758468D01*
X127984562Y-99854167D01*
X128234634Y-99854167D01*
X128465671Y-99758468D01*
X128642499Y-99581640D01*
X128653216Y-99555767D01*
X131507611Y-99555767D01*
X131540133Y-99562236D01*
X131572655Y-99555767D01*
X131583550Y-99553600D01*
X131589055Y-99552505D01*
X131668971Y-99536609D01*
X131778194Y-99463628D01*
X131796617Y-99436056D01*
X132160489Y-99072184D01*
X132188061Y-99053761D01*
X132261042Y-98944538D01*
X132275674Y-98870976D01*
X132324600Y-98822050D01*
X132324600Y-98287900D01*
X132304600Y-98287900D01*
X132304600Y-98237100D01*
X132324600Y-98237100D01*
X132324600Y-96887900D01*
X132304600Y-96887900D01*
X132304600Y-96837100D01*
X132324600Y-96837100D01*
X132324600Y-96817100D01*
X132375400Y-96817100D01*
X132375400Y-96837100D01*
X132395400Y-96837100D01*
X132395400Y-96887900D01*
X132375400Y-96887900D01*
X132375400Y-98237100D01*
X132395400Y-98237100D01*
X132395400Y-98287900D01*
X132375400Y-98287900D01*
X132375400Y-98822050D01*
X132419800Y-98866450D01*
X132419801Y-99467473D01*
X132413331Y-99500000D01*
X132438958Y-99628837D01*
X132493517Y-99710490D01*
X132493519Y-99710492D01*
X132511940Y-99738061D01*
X132539509Y-99756482D01*
X132899946Y-100116919D01*
X132835189Y-100160189D01*
X132784664Y-100235805D01*
X132766922Y-100325000D01*
X132766922Y-101225000D01*
X132784664Y-101314195D01*
X132835189Y-101389811D01*
X132910805Y-101440336D01*
X133000000Y-101458078D01*
X133600000Y-101458078D01*
X133689195Y-101440336D01*
X133764811Y-101389811D01*
X133815336Y-101314195D01*
X133833078Y-101225000D01*
X133833078Y-101201400D01*
X136383026Y-101201400D01*
X136484127Y-101302501D01*
X136715164Y-101398200D01*
X136965236Y-101398200D01*
X137196273Y-101302501D01*
X137297374Y-101201400D01*
X137613745Y-101201400D01*
X140657604Y-104245260D01*
X140681692Y-104281310D01*
X140709963Y-104300200D01*
X140254018Y-104300200D01*
X140243301Y-104274327D01*
X140066473Y-104097499D01*
X139835436Y-104001800D01*
X139585364Y-104001800D01*
X139354327Y-104097499D01*
X139177499Y-104274327D01*
X139081800Y-104505364D01*
X139081800Y-104687600D01*
X138874164Y-104687600D01*
X138643127Y-104783299D01*
X138466299Y-104960127D01*
X138370600Y-105191164D01*
X138370600Y-105441236D01*
X138466299Y-105672273D01*
X138643127Y-105849101D01*
X138874164Y-105944800D01*
X139124236Y-105944800D01*
X139355273Y-105849101D01*
X139532101Y-105672273D01*
X139542818Y-105646400D01*
X167881278Y-105646400D01*
X167913800Y-105652869D01*
X167946322Y-105646400D01*
X168042638Y-105627242D01*
X168151861Y-105554261D01*
X168170284Y-105526689D01*
X168325078Y-105371895D01*
X168346218Y-105376100D01*
X169224880Y-105376100D01*
X169225135Y-106571400D01*
X120328600Y-106571400D01*
X120328600Y-100870250D01*
X131220600Y-100870250D01*
X131220600Y-101280576D01*
X131263136Y-101383267D01*
X131341733Y-101461864D01*
X131444424Y-101504400D01*
X131704750Y-101504400D01*
X131774600Y-101434550D01*
X131774600Y-100800400D01*
X131825400Y-100800400D01*
X131825400Y-101434550D01*
X131895250Y-101504400D01*
X132155576Y-101504400D01*
X132258267Y-101461864D01*
X132336864Y-101383267D01*
X132379400Y-101280576D01*
X132379400Y-100870250D01*
X132309550Y-100800400D01*
X131825400Y-100800400D01*
X131774600Y-100800400D01*
X131290450Y-100800400D01*
X131220600Y-100870250D01*
X120328600Y-100870250D01*
X120328600Y-100269424D01*
X131220600Y-100269424D01*
X131220600Y-100679750D01*
X131290450Y-100749600D01*
X131774600Y-100749600D01*
X131774600Y-100115450D01*
X131825400Y-100115450D01*
X131825400Y-100749600D01*
X132309550Y-100749600D01*
X132379400Y-100679750D01*
X132379400Y-100269424D01*
X132336864Y-100166733D01*
X132258267Y-100088136D01*
X132155576Y-100045600D01*
X131895250Y-100045600D01*
X131825400Y-100115450D01*
X131774600Y-100115450D01*
X131704750Y-100045600D01*
X131444424Y-100045600D01*
X131341733Y-100088136D01*
X131263136Y-100166733D01*
X131220600Y-100269424D01*
X120328600Y-100269424D01*
X120328600Y-99250639D01*
X121735282Y-99250639D01*
X121828877Y-99416934D01*
X122249993Y-99600158D01*
X122709170Y-99608281D01*
X123136503Y-99440066D01*
X123171123Y-99416934D01*
X123264718Y-99250639D01*
X122500000Y-98485921D01*
X121735282Y-99250639D01*
X120328600Y-99250639D01*
X120328600Y-98659170D01*
X121341719Y-98659170D01*
X121509934Y-99086503D01*
X121533066Y-99121123D01*
X121699361Y-99214718D01*
X122464079Y-98450000D01*
X122535921Y-98450000D01*
X123300639Y-99214718D01*
X123466934Y-99121123D01*
X123650158Y-98700007D01*
X123658281Y-98240830D01*
X123490066Y-97813497D01*
X123466934Y-97778877D01*
X123300639Y-97685282D01*
X122535921Y-98450000D01*
X122464079Y-98450000D01*
X121699361Y-97685282D01*
X121533066Y-97778877D01*
X121349842Y-98199993D01*
X121341719Y-98659170D01*
X120328600Y-98659170D01*
X120328600Y-97649361D01*
X121735282Y-97649361D01*
X122500000Y-98414079D01*
X123264718Y-97649361D01*
X123171123Y-97483066D01*
X122750007Y-97299842D01*
X122290830Y-97291719D01*
X121863497Y-97459934D01*
X121828877Y-97483066D01*
X121735282Y-97649361D01*
X120328600Y-97649361D01*
X120328600Y-92452318D01*
X120681103Y-92452318D01*
X120791858Y-92633264D01*
X121263925Y-92839977D01*
X121779164Y-92850303D01*
X122259134Y-92662669D01*
X122303142Y-92633264D01*
X122413897Y-92452318D01*
X121547500Y-91585921D01*
X120681103Y-92452318D01*
X120328600Y-92452318D01*
X120328600Y-91989894D01*
X120434831Y-92261634D01*
X120464236Y-92305642D01*
X120645182Y-92416397D01*
X121511579Y-91550000D01*
X120645182Y-90683603D01*
X120464236Y-90794358D01*
X120328600Y-91104108D01*
X120328600Y-90328600D01*
X121114001Y-90328600D01*
X120835866Y-90437331D01*
G36*
X166790523Y-93151181D02*
X166814611Y-93187231D01*
X166850661Y-93211319D01*
X166850662Y-93211320D01*
X166942041Y-93272377D01*
X166957441Y-93282667D01*
X167083395Y-93307721D01*
X167083398Y-93307721D01*
X167125920Y-93316179D01*
X167168442Y-93307721D01*
X168801761Y-93307721D01*
X168803232Y-93315116D01*
X168853757Y-93390732D01*
X168929373Y-93441257D01*
X169018568Y-93458999D01*
X170318568Y-93458999D01*
X170407763Y-93441257D01*
X170483379Y-93390732D01*
X170533904Y-93315116D01*
X170550532Y-93231521D01*
X171051573Y-93231521D01*
X170716172Y-93566922D01*
X167150000Y-93566922D01*
X167060805Y-93584664D01*
X166985189Y-93635189D01*
X166934664Y-93710805D01*
X166916922Y-93800000D01*
X166916922Y-96150000D01*
X166934664Y-96239195D01*
X166985189Y-96314811D01*
X167060805Y-96365336D01*
X167150000Y-96383078D01*
X172250000Y-96383078D01*
X172339195Y-96365336D01*
X172414811Y-96314811D01*
X172465336Y-96239195D01*
X172483078Y-96150000D01*
X172483078Y-93800000D01*
X172465336Y-93710805D01*
X172414811Y-93635189D01*
X172339195Y-93584664D01*
X172250000Y-93566922D01*
X171721962Y-93566922D01*
X171882754Y-93406130D01*
X171912441Y-93386294D01*
X171960325Y-93314631D01*
X171991035Y-93268669D01*
X171993409Y-93256736D01*
X172018331Y-93273388D01*
X172122059Y-93294021D01*
X172157079Y-93300987D01*
X172192099Y-93294021D01*
X172759050Y-93294021D01*
X172765732Y-93327616D01*
X172816257Y-93403232D01*
X172891873Y-93453757D01*
X172895029Y-93454385D01*
X172866257Y-93473610D01*
X172815732Y-93549226D01*
X172797990Y-93638421D01*
X172797990Y-94538421D01*
X172815732Y-94627616D01*
X172866257Y-94703232D01*
X172941873Y-94753757D01*
X173031068Y-94771499D01*
X173631068Y-94771499D01*
X173720263Y-94753757D01*
X173795879Y-94703232D01*
X173846404Y-94627616D01*
X173864146Y-94538421D01*
X173864146Y-93638421D01*
X173846404Y-93549226D01*
X173795879Y-93473610D01*
X173792720Y-93471499D01*
X173881068Y-93471499D01*
X173970263Y-93453757D01*
X174045879Y-93403232D01*
X174081068Y-93350568D01*
X174116257Y-93403232D01*
X174191873Y-93453757D01*
X174281068Y-93471499D01*
X174369416Y-93471499D01*
X174366257Y-93473610D01*
X174315732Y-93549226D01*
X174297990Y-93638421D01*
X174297990Y-94538421D01*
X174315732Y-94627616D01*
X174348468Y-94676609D01*
X174348468Y-95169033D01*
X171800580Y-97716922D01*
X167150000Y-97716922D01*
X167060805Y-97734664D01*
X166985189Y-97785189D01*
X166934664Y-97860805D01*
X166924178Y-97913521D01*
X165777845Y-96767188D01*
X165828600Y-96644656D01*
X165828600Y-96255344D01*
X165679617Y-95895668D01*
X165404332Y-95620383D01*
X165044656Y-95471400D01*
X164655344Y-95471400D01*
X164295668Y-95620383D01*
X164020383Y-95895668D01*
X163969628Y-96018200D01*
X163730372Y-96018200D01*
X163679617Y-95895668D01*
X163404332Y-95620383D01*
X163044656Y-95471400D01*
X162655344Y-95471400D01*
X162295668Y-95620383D01*
X162020383Y-95895668D01*
X161871400Y-96255344D01*
X161871400Y-96644656D01*
X162020383Y-97004332D01*
X162295668Y-97279617D01*
X162655344Y-97428600D01*
X163044656Y-97428600D01*
X163404332Y-97279617D01*
X163679617Y-97004332D01*
X163730372Y-96881800D01*
X163969628Y-96881800D01*
X164020383Y-97004332D01*
X164295668Y-97279617D01*
X164655344Y-97428600D01*
X165044656Y-97428600D01*
X165167188Y-97377845D01*
X166916922Y-99127579D01*
X166916922Y-100300000D01*
X166934664Y-100389195D01*
X166985189Y-100464811D01*
X167060805Y-100515336D01*
X167150000Y-100533078D01*
X169223850Y-100533078D01*
X169224009Y-101283900D01*
X168346218Y-101283900D01*
X168186923Y-101315586D01*
X168063281Y-101398200D01*
X165118048Y-101398200D01*
X165404332Y-101279617D01*
X165679617Y-101004332D01*
X165828600Y-100644656D01*
X165828600Y-100255344D01*
X165679617Y-99895668D01*
X165404332Y-99620383D01*
X165044656Y-99471400D01*
X164655344Y-99471400D01*
X164295668Y-99620383D01*
X164020383Y-99895668D01*
X163871400Y-100255344D01*
X163871400Y-100644656D01*
X164020383Y-101004332D01*
X164295668Y-101279617D01*
X164581952Y-101398200D01*
X163279721Y-101398200D01*
X163237199Y-101389742D01*
X163194677Y-101398200D01*
X163194674Y-101398200D01*
X163068720Y-101423254D01*
X162961941Y-101494601D01*
X162961940Y-101494602D01*
X162925890Y-101518690D01*
X162901802Y-101554740D01*
X160918343Y-103538200D01*
X141171860Y-103538200D01*
X138128002Y-100494343D01*
X138103912Y-100458290D01*
X137961082Y-100362854D01*
X137835128Y-100337800D01*
X137835124Y-100337800D01*
X137792602Y-100329342D01*
X137750080Y-100337800D01*
X137297374Y-100337800D01*
X137214918Y-100255344D01*
X161871400Y-100255344D01*
X161871400Y-100644656D01*
X162020383Y-101004332D01*
X162295668Y-101279617D01*
X162655344Y-101428600D01*
X163044656Y-101428600D01*
X163404332Y-101279617D01*
X163679617Y-101004332D01*
X163828600Y-100644656D01*
X163828600Y-100255344D01*
X163679617Y-99895668D01*
X163404332Y-99620383D01*
X163044656Y-99471400D01*
X162655344Y-99471400D01*
X162295668Y-99620383D01*
X162020383Y-99895668D01*
X161871400Y-100255344D01*
X137214918Y-100255344D01*
X137196273Y-100236699D01*
X136965236Y-100141000D01*
X136715164Y-100141000D01*
X136484127Y-100236699D01*
X136383026Y-100337800D01*
X133833078Y-100337800D01*
X133833078Y-100325000D01*
X133815336Y-100235805D01*
X133764811Y-100160189D01*
X133689195Y-100109664D01*
X133630200Y-100097929D01*
X133630200Y-100082516D01*
X133636668Y-100049999D01*
X133630200Y-100017482D01*
X133630200Y-100017478D01*
X133611042Y-99921162D01*
X133538060Y-99811939D01*
X133510491Y-99793518D01*
X133080200Y-99363227D01*
X133080200Y-98845578D01*
X133250000Y-98845578D01*
X133339195Y-98827836D01*
X133414811Y-98777311D01*
X133465336Y-98701695D01*
X133483078Y-98612500D01*
X133483078Y-98592700D01*
X150201204Y-98592700D01*
X150217099Y-98631073D01*
X150393927Y-98807901D01*
X150624964Y-98903600D01*
X150875036Y-98903600D01*
X151106073Y-98807901D01*
X151282901Y-98631073D01*
X151378600Y-98400036D01*
X151378600Y-98255344D01*
X161871400Y-98255344D01*
X161871400Y-98644656D01*
X162020383Y-99004332D01*
X162295668Y-99279617D01*
X162655344Y-99428600D01*
X163044656Y-99428600D01*
X163404332Y-99279617D01*
X163679617Y-99004332D01*
X163828600Y-98644656D01*
X163828600Y-98255344D01*
X163871400Y-98255344D01*
X163871400Y-98644656D01*
X164020383Y-99004332D01*
X164295668Y-99279617D01*
X164655344Y-99428600D01*
X165044656Y-99428600D01*
X165404332Y-99279617D01*
X165679617Y-99004332D01*
X165828600Y-98644656D01*
X165828600Y-98255344D01*
X165679617Y-97895668D01*
X165404332Y-97620383D01*
X165044656Y-97471400D01*
X164655344Y-97471400D01*
X164295668Y-97620383D01*
X164020383Y-97895668D01*
X163871400Y-98255344D01*
X163828600Y-98255344D01*
X163679617Y-97895668D01*
X163404332Y-97620383D01*
X163044656Y-97471400D01*
X162655344Y-97471400D01*
X162295668Y-97620383D01*
X162020383Y-97895668D01*
X161871400Y-98255344D01*
X151378600Y-98255344D01*
X151378600Y-98202128D01*
X151529036Y-98202128D01*
X151760073Y-98106429D01*
X151936901Y-97929601D01*
X152032600Y-97698564D01*
X152032600Y-97499139D01*
X152183036Y-97499139D01*
X152414073Y-97403440D01*
X152590901Y-97226612D01*
X152686600Y-96995575D01*
X152686600Y-96795420D01*
X152837036Y-96795420D01*
X153068073Y-96699721D01*
X153244901Y-96522893D01*
X153340600Y-96291856D01*
X153340600Y-96098301D01*
X153491036Y-96098301D01*
X153722073Y-96002602D01*
X153898901Y-95825774D01*
X153994600Y-95594737D01*
X153994600Y-95344665D01*
X153898901Y-95113628D01*
X153722073Y-94936800D01*
X153491036Y-94841101D01*
X153240964Y-94841101D01*
X153009927Y-94936800D01*
X152833099Y-95113628D01*
X152822382Y-95139501D01*
X150625321Y-95139501D01*
X150592799Y-95133032D01*
X150560277Y-95139501D01*
X150463961Y-95158659D01*
X150354738Y-95231640D01*
X150336315Y-95259212D01*
X149463227Y-96132300D01*
X137337274Y-96132300D01*
X137373101Y-96096473D01*
X137468800Y-95865436D01*
X137468800Y-95615364D01*
X137373101Y-95384327D01*
X137272000Y-95283226D01*
X137272000Y-93425507D01*
X162721400Y-93425507D01*
X162721400Y-93874493D01*
X162893219Y-94289301D01*
X163210699Y-94606781D01*
X163625507Y-94778600D01*
X164074493Y-94778600D01*
X164489301Y-94606781D01*
X164806781Y-94289301D01*
X164978600Y-93874493D01*
X164978600Y-93425507D01*
X164806781Y-93010699D01*
X164489301Y-92693219D01*
X164074493Y-92521400D01*
X163625507Y-92521400D01*
X163210699Y-92693219D01*
X162893219Y-93010699D01*
X162721400Y-93425507D01*
X137272000Y-93425507D01*
X137272000Y-91942708D01*
X139383900Y-91942708D01*
X139383900Y-92282292D01*
X139513853Y-92596026D01*
X139753974Y-92836147D01*
X140067708Y-92966100D01*
X140407292Y-92966100D01*
X140721026Y-92836147D01*
X140961147Y-92596026D01*
X140987500Y-92532404D01*
X141013853Y-92596026D01*
X141253974Y-92836147D01*
X141567708Y-92966100D01*
X141907292Y-92966100D01*
X142221026Y-92836147D01*
X142461147Y-92596026D01*
X142487500Y-92532404D01*
X142513853Y-92596026D01*
X142753974Y-92836147D01*
X143067708Y-92966100D01*
X143407292Y-92966100D01*
X143721026Y-92836147D01*
X143961147Y-92596026D01*
X143987500Y-92532404D01*
X144013853Y-92596026D01*
X144253974Y-92836147D01*
X144567708Y-92966100D01*
X144907292Y-92966100D01*
X145221026Y-92836147D01*
X145461147Y-92596026D01*
X145487500Y-92532404D01*
X145513853Y-92596026D01*
X145753974Y-92836147D01*
X146067708Y-92966100D01*
X146407292Y-92966100D01*
X146721026Y-92836147D01*
X146961147Y-92596026D01*
X146987500Y-92532404D01*
X147013853Y-92596026D01*
X147253974Y-92836147D01*
X147567708Y-92966100D01*
X147907292Y-92966100D01*
X148221026Y-92836147D01*
X148461147Y-92596026D01*
X148487500Y-92532404D01*
X148513853Y-92596026D01*
X148753974Y-92836147D01*
X149067708Y-92966100D01*
X149407292Y-92966100D01*
X149721026Y-92836147D01*
X149961147Y-92596026D01*
X149987500Y-92532404D01*
X150013853Y-92596026D01*
X150253974Y-92836147D01*
X150567708Y-92966100D01*
X150907292Y-92966100D01*
X151221026Y-92836147D01*
X151461147Y-92596026D01*
X151487500Y-92532404D01*
X151513853Y-92596026D01*
X151753974Y-92836147D01*
X152067708Y-92966100D01*
X152407292Y-92966100D01*
X152721026Y-92836147D01*
X152961147Y-92596026D01*
X152987500Y-92532404D01*
X153013853Y-92596026D01*
X153253974Y-92836147D01*
X153567708Y-92966100D01*
X153907292Y-92966100D01*
X154221026Y-92836147D01*
X154461147Y-92596026D01*
X154487500Y-92532404D01*
X154513853Y-92596026D01*
X154753974Y-92836147D01*
X155067708Y-92966100D01*
X155407292Y-92966100D01*
X155721026Y-92836147D01*
X155961147Y-92596026D01*
X155987500Y-92532404D01*
X156013853Y-92596026D01*
X156253974Y-92836147D01*
X156567708Y-92966100D01*
X156907292Y-92966100D01*
X157221026Y-92836147D01*
X157461147Y-92596026D01*
X157591100Y-92282292D01*
X157591100Y-91942708D01*
X157461147Y-91628974D01*
X157221026Y-91388853D01*
X156907292Y-91258900D01*
X156567708Y-91258900D01*
X156253974Y-91388853D01*
X156013853Y-91628974D01*
X155987500Y-91692596D01*
X155961147Y-91628974D01*
X155721026Y-91388853D01*
X155407292Y-91258900D01*
X155067708Y-91258900D01*
X154753974Y-91388853D01*
X154513853Y-91628974D01*
X154487500Y-91692596D01*
X154461147Y-91628974D01*
X154221026Y-91388853D01*
X153907292Y-91258900D01*
X153567708Y-91258900D01*
X153253974Y-91388853D01*
X153013853Y-91628974D01*
X152987500Y-91692596D01*
X152961147Y-91628974D01*
X152721026Y-91388853D01*
X152407292Y-91258900D01*
X152067708Y-91258900D01*
X151753974Y-91388853D01*
X151513853Y-91628974D01*
X151487500Y-91692596D01*
X151461147Y-91628974D01*
X151221026Y-91388853D01*
X150907292Y-91258900D01*
X150567708Y-91258900D01*
X150253974Y-91388853D01*
X150013853Y-91628974D01*
X149987500Y-91692596D01*
X149961147Y-91628974D01*
X149721026Y-91388853D01*
X149407292Y-91258900D01*
X149067708Y-91258900D01*
X148753974Y-91388853D01*
X148513853Y-91628974D01*
X148487500Y-91692596D01*
X148461147Y-91628974D01*
X148221026Y-91388853D01*
X147907292Y-91258900D01*
X147567708Y-91258900D01*
X147253974Y-91388853D01*
X147013853Y-91628974D01*
X146987500Y-91692596D01*
X146961147Y-91628974D01*
X146721026Y-91388853D01*
X146407292Y-91258900D01*
X146067708Y-91258900D01*
X145753974Y-91388853D01*
X145513853Y-91628974D01*
X145487500Y-91692596D01*
X145461147Y-91628974D01*
X145221026Y-91388853D01*
X144907292Y-91258900D01*
X144567708Y-91258900D01*
X144253974Y-91388853D01*
X144013853Y-91628974D01*
X143987500Y-91692596D01*
X143961147Y-91628974D01*
X143721026Y-91388853D01*
X143407292Y-91258900D01*
X143067708Y-91258900D01*
X142753974Y-91388853D01*
X142513853Y-91628974D01*
X142487500Y-91692596D01*
X142461147Y-91628974D01*
X142221026Y-91388853D01*
X141907292Y-91258900D01*
X141567708Y-91258900D01*
X141253974Y-91388853D01*
X141013853Y-91628974D01*
X140987500Y-91692596D01*
X140961147Y-91628974D01*
X140721026Y-91388853D01*
X140407292Y-91258900D01*
X140067708Y-91258900D01*
X139753974Y-91388853D01*
X139513853Y-91628974D01*
X139383900Y-91942708D01*
X137272000Y-91942708D01*
X137272000Y-91051199D01*
X164690542Y-91051199D01*
X166790523Y-93151181D01*
X166790523Y-93151181D01*
G37*
X166790523Y-93151181D02*
X166814611Y-93187231D01*
X166850661Y-93211319D01*
X166850662Y-93211320D01*
X166942041Y-93272377D01*
X166957441Y-93282667D01*
X167083395Y-93307721D01*
X167083398Y-93307721D01*
X167125920Y-93316179D01*
X167168442Y-93307721D01*
X168801761Y-93307721D01*
X168803232Y-93315116D01*
X168853757Y-93390732D01*
X168929373Y-93441257D01*
X169018568Y-93458999D01*
X170318568Y-93458999D01*
X170407763Y-93441257D01*
X170483379Y-93390732D01*
X170533904Y-93315116D01*
X170550532Y-93231521D01*
X171051573Y-93231521D01*
X170716172Y-93566922D01*
X167150000Y-93566922D01*
X167060805Y-93584664D01*
X166985189Y-93635189D01*
X166934664Y-93710805D01*
X166916922Y-93800000D01*
X166916922Y-96150000D01*
X166934664Y-96239195D01*
X166985189Y-96314811D01*
X167060805Y-96365336D01*
X167150000Y-96383078D01*
X172250000Y-96383078D01*
X172339195Y-96365336D01*
X172414811Y-96314811D01*
X172465336Y-96239195D01*
X172483078Y-96150000D01*
X172483078Y-93800000D01*
X172465336Y-93710805D01*
X172414811Y-93635189D01*
X172339195Y-93584664D01*
X172250000Y-93566922D01*
X171721962Y-93566922D01*
X171882754Y-93406130D01*
X171912441Y-93386294D01*
X171960325Y-93314631D01*
X171991035Y-93268669D01*
X171993409Y-93256736D01*
X172018331Y-93273388D01*
X172122059Y-93294021D01*
X172157079Y-93300987D01*
X172192099Y-93294021D01*
X172759050Y-93294021D01*
X172765732Y-93327616D01*
X172816257Y-93403232D01*
X172891873Y-93453757D01*
X172895029Y-93454385D01*
X172866257Y-93473610D01*
X172815732Y-93549226D01*
X172797990Y-93638421D01*
X172797990Y-94538421D01*
X172815732Y-94627616D01*
X172866257Y-94703232D01*
X172941873Y-94753757D01*
X173031068Y-94771499D01*
X173631068Y-94771499D01*
X173720263Y-94753757D01*
X173795879Y-94703232D01*
X173846404Y-94627616D01*
X173864146Y-94538421D01*
X173864146Y-93638421D01*
X173846404Y-93549226D01*
X173795879Y-93473610D01*
X173792720Y-93471499D01*
X173881068Y-93471499D01*
X173970263Y-93453757D01*
X174045879Y-93403232D01*
X174081068Y-93350568D01*
X174116257Y-93403232D01*
X174191873Y-93453757D01*
X174281068Y-93471499D01*
X174369416Y-93471499D01*
X174366257Y-93473610D01*
X174315732Y-93549226D01*
X174297990Y-93638421D01*
X174297990Y-94538421D01*
X174315732Y-94627616D01*
X174348468Y-94676609D01*
X174348468Y-95169033D01*
X171800580Y-97716922D01*
X167150000Y-97716922D01*
X167060805Y-97734664D01*
X166985189Y-97785189D01*
X166934664Y-97860805D01*
X166924178Y-97913521D01*
X165777845Y-96767188D01*
X165828600Y-96644656D01*
X165828600Y-96255344D01*
X165679617Y-95895668D01*
X165404332Y-95620383D01*
X165044656Y-95471400D01*
X164655344Y-95471400D01*
X164295668Y-95620383D01*
X164020383Y-95895668D01*
X163969628Y-96018200D01*
X163730372Y-96018200D01*
X163679617Y-95895668D01*
X163404332Y-95620383D01*
X163044656Y-95471400D01*
X162655344Y-95471400D01*
X162295668Y-95620383D01*
X162020383Y-95895668D01*
X161871400Y-96255344D01*
X161871400Y-96644656D01*
X162020383Y-97004332D01*
X162295668Y-97279617D01*
X162655344Y-97428600D01*
X163044656Y-97428600D01*
X163404332Y-97279617D01*
X163679617Y-97004332D01*
X163730372Y-96881800D01*
X163969628Y-96881800D01*
X164020383Y-97004332D01*
X164295668Y-97279617D01*
X164655344Y-97428600D01*
X165044656Y-97428600D01*
X165167188Y-97377845D01*
X166916922Y-99127579D01*
X166916922Y-100300000D01*
X166934664Y-100389195D01*
X166985189Y-100464811D01*
X167060805Y-100515336D01*
X167150000Y-100533078D01*
X169223850Y-100533078D01*
X169224009Y-101283900D01*
X168346218Y-101283900D01*
X168186923Y-101315586D01*
X168063281Y-101398200D01*
X165118048Y-101398200D01*
X165404332Y-101279617D01*
X165679617Y-101004332D01*
X165828600Y-100644656D01*
X165828600Y-100255344D01*
X165679617Y-99895668D01*
X165404332Y-99620383D01*
X165044656Y-99471400D01*
X164655344Y-99471400D01*
X164295668Y-99620383D01*
X164020383Y-99895668D01*
X163871400Y-100255344D01*
X163871400Y-100644656D01*
X164020383Y-101004332D01*
X164295668Y-101279617D01*
X164581952Y-101398200D01*
X163279721Y-101398200D01*
X163237199Y-101389742D01*
X163194677Y-101398200D01*
X163194674Y-101398200D01*
X163068720Y-101423254D01*
X162961941Y-101494601D01*
X162961940Y-101494602D01*
X162925890Y-101518690D01*
X162901802Y-101554740D01*
X160918343Y-103538200D01*
X141171860Y-103538200D01*
X138128002Y-100494343D01*
X138103912Y-100458290D01*
X137961082Y-100362854D01*
X137835128Y-100337800D01*
X137835124Y-100337800D01*
X137792602Y-100329342D01*
X137750080Y-100337800D01*
X137297374Y-100337800D01*
X137214918Y-100255344D01*
X161871400Y-100255344D01*
X161871400Y-100644656D01*
X162020383Y-101004332D01*
X162295668Y-101279617D01*
X162655344Y-101428600D01*
X163044656Y-101428600D01*
X163404332Y-101279617D01*
X163679617Y-101004332D01*
X163828600Y-100644656D01*
X163828600Y-100255344D01*
X163679617Y-99895668D01*
X163404332Y-99620383D01*
X163044656Y-99471400D01*
X162655344Y-99471400D01*
X162295668Y-99620383D01*
X162020383Y-99895668D01*
X161871400Y-100255344D01*
X137214918Y-100255344D01*
X137196273Y-100236699D01*
X136965236Y-100141000D01*
X136715164Y-100141000D01*
X136484127Y-100236699D01*
X136383026Y-100337800D01*
X133833078Y-100337800D01*
X133833078Y-100325000D01*
X133815336Y-100235805D01*
X133764811Y-100160189D01*
X133689195Y-100109664D01*
X133630200Y-100097929D01*
X133630200Y-100082516D01*
X133636668Y-100049999D01*
X133630200Y-100017482D01*
X133630200Y-100017478D01*
X133611042Y-99921162D01*
X133538060Y-99811939D01*
X133510491Y-99793518D01*
X133080200Y-99363227D01*
X133080200Y-98845578D01*
X133250000Y-98845578D01*
X133339195Y-98827836D01*
X133414811Y-98777311D01*
X133465336Y-98701695D01*
X133483078Y-98612500D01*
X133483078Y-98592700D01*
X150201204Y-98592700D01*
X150217099Y-98631073D01*
X150393927Y-98807901D01*
X150624964Y-98903600D01*
X150875036Y-98903600D01*
X151106073Y-98807901D01*
X151282901Y-98631073D01*
X151378600Y-98400036D01*
X151378600Y-98255344D01*
X161871400Y-98255344D01*
X161871400Y-98644656D01*
X162020383Y-99004332D01*
X162295668Y-99279617D01*
X162655344Y-99428600D01*
X163044656Y-99428600D01*
X163404332Y-99279617D01*
X163679617Y-99004332D01*
X163828600Y-98644656D01*
X163828600Y-98255344D01*
X163871400Y-98255344D01*
X163871400Y-98644656D01*
X164020383Y-99004332D01*
X164295668Y-99279617D01*
X164655344Y-99428600D01*
X165044656Y-99428600D01*
X165404332Y-99279617D01*
X165679617Y-99004332D01*
X165828600Y-98644656D01*
X165828600Y-98255344D01*
X165679617Y-97895668D01*
X165404332Y-97620383D01*
X165044656Y-97471400D01*
X164655344Y-97471400D01*
X164295668Y-97620383D01*
X164020383Y-97895668D01*
X163871400Y-98255344D01*
X163828600Y-98255344D01*
X163679617Y-97895668D01*
X163404332Y-97620383D01*
X163044656Y-97471400D01*
X162655344Y-97471400D01*
X162295668Y-97620383D01*
X162020383Y-97895668D01*
X161871400Y-98255344D01*
X151378600Y-98255344D01*
X151378600Y-98202128D01*
X151529036Y-98202128D01*
X151760073Y-98106429D01*
X151936901Y-97929601D01*
X152032600Y-97698564D01*
X152032600Y-97499139D01*
X152183036Y-97499139D01*
X152414073Y-97403440D01*
X152590901Y-97226612D01*
X152686600Y-96995575D01*
X152686600Y-96795420D01*
X152837036Y-96795420D01*
X153068073Y-96699721D01*
X153244901Y-96522893D01*
X153340600Y-96291856D01*
X153340600Y-96098301D01*
X153491036Y-96098301D01*
X153722073Y-96002602D01*
X153898901Y-95825774D01*
X153994600Y-95594737D01*
X153994600Y-95344665D01*
X153898901Y-95113628D01*
X153722073Y-94936800D01*
X153491036Y-94841101D01*
X153240964Y-94841101D01*
X153009927Y-94936800D01*
X152833099Y-95113628D01*
X152822382Y-95139501D01*
X150625321Y-95139501D01*
X150592799Y-95133032D01*
X150560277Y-95139501D01*
X150463961Y-95158659D01*
X150354738Y-95231640D01*
X150336315Y-95259212D01*
X149463227Y-96132300D01*
X137337274Y-96132300D01*
X137373101Y-96096473D01*
X137468800Y-95865436D01*
X137468800Y-95615364D01*
X137373101Y-95384327D01*
X137272000Y-95283226D01*
X137272000Y-93425507D01*
X162721400Y-93425507D01*
X162721400Y-93874493D01*
X162893219Y-94289301D01*
X163210699Y-94606781D01*
X163625507Y-94778600D01*
X164074493Y-94778600D01*
X164489301Y-94606781D01*
X164806781Y-94289301D01*
X164978600Y-93874493D01*
X164978600Y-93425507D01*
X164806781Y-93010699D01*
X164489301Y-92693219D01*
X164074493Y-92521400D01*
X163625507Y-92521400D01*
X163210699Y-92693219D01*
X162893219Y-93010699D01*
X162721400Y-93425507D01*
X137272000Y-93425507D01*
X137272000Y-91942708D01*
X139383900Y-91942708D01*
X139383900Y-92282292D01*
X139513853Y-92596026D01*
X139753974Y-92836147D01*
X140067708Y-92966100D01*
X140407292Y-92966100D01*
X140721026Y-92836147D01*
X140961147Y-92596026D01*
X140987500Y-92532404D01*
X141013853Y-92596026D01*
X141253974Y-92836147D01*
X141567708Y-92966100D01*
X141907292Y-92966100D01*
X142221026Y-92836147D01*
X142461147Y-92596026D01*
X142487500Y-92532404D01*
X142513853Y-92596026D01*
X142753974Y-92836147D01*
X143067708Y-92966100D01*
X143407292Y-92966100D01*
X143721026Y-92836147D01*
X143961147Y-92596026D01*
X143987500Y-92532404D01*
X144013853Y-92596026D01*
X144253974Y-92836147D01*
X144567708Y-92966100D01*
X144907292Y-92966100D01*
X145221026Y-92836147D01*
X145461147Y-92596026D01*
X145487500Y-92532404D01*
X145513853Y-92596026D01*
X145753974Y-92836147D01*
X146067708Y-92966100D01*
X146407292Y-92966100D01*
X146721026Y-92836147D01*
X146961147Y-92596026D01*
X146987500Y-92532404D01*
X147013853Y-92596026D01*
X147253974Y-92836147D01*
X147567708Y-92966100D01*
X147907292Y-92966100D01*
X148221026Y-92836147D01*
X148461147Y-92596026D01*
X148487500Y-92532404D01*
X148513853Y-92596026D01*
X148753974Y-92836147D01*
X149067708Y-92966100D01*
X149407292Y-92966100D01*
X149721026Y-92836147D01*
X149961147Y-92596026D01*
X149987500Y-92532404D01*
X150013853Y-92596026D01*
X150253974Y-92836147D01*
X150567708Y-92966100D01*
X150907292Y-92966100D01*
X151221026Y-92836147D01*
X151461147Y-92596026D01*
X151487500Y-92532404D01*
X151513853Y-92596026D01*
X151753974Y-92836147D01*
X152067708Y-92966100D01*
X152407292Y-92966100D01*
X152721026Y-92836147D01*
X152961147Y-92596026D01*
X152987500Y-92532404D01*
X153013853Y-92596026D01*
X153253974Y-92836147D01*
X153567708Y-92966100D01*
X153907292Y-92966100D01*
X154221026Y-92836147D01*
X154461147Y-92596026D01*
X154487500Y-92532404D01*
X154513853Y-92596026D01*
X154753974Y-92836147D01*
X155067708Y-92966100D01*
X155407292Y-92966100D01*
X155721026Y-92836147D01*
X155961147Y-92596026D01*
X155987500Y-92532404D01*
X156013853Y-92596026D01*
X156253974Y-92836147D01*
X156567708Y-92966100D01*
X156907292Y-92966100D01*
X157221026Y-92836147D01*
X157461147Y-92596026D01*
X157591100Y-92282292D01*
X157591100Y-91942708D01*
X157461147Y-91628974D01*
X157221026Y-91388853D01*
X156907292Y-91258900D01*
X156567708Y-91258900D01*
X156253974Y-91388853D01*
X156013853Y-91628974D01*
X155987500Y-91692596D01*
X155961147Y-91628974D01*
X155721026Y-91388853D01*
X155407292Y-91258900D01*
X155067708Y-91258900D01*
X154753974Y-91388853D01*
X154513853Y-91628974D01*
X154487500Y-91692596D01*
X154461147Y-91628974D01*
X154221026Y-91388853D01*
X153907292Y-91258900D01*
X153567708Y-91258900D01*
X153253974Y-91388853D01*
X153013853Y-91628974D01*
X152987500Y-91692596D01*
X152961147Y-91628974D01*
X152721026Y-91388853D01*
X152407292Y-91258900D01*
X152067708Y-91258900D01*
X151753974Y-91388853D01*
X151513853Y-91628974D01*
X151487500Y-91692596D01*
X151461147Y-91628974D01*
X151221026Y-91388853D01*
X150907292Y-91258900D01*
X150567708Y-91258900D01*
X150253974Y-91388853D01*
X150013853Y-91628974D01*
X149987500Y-91692596D01*
X149961147Y-91628974D01*
X149721026Y-91388853D01*
X149407292Y-91258900D01*
X149067708Y-91258900D01*
X148753974Y-91388853D01*
X148513853Y-91628974D01*
X148487500Y-91692596D01*
X148461147Y-91628974D01*
X148221026Y-91388853D01*
X147907292Y-91258900D01*
X147567708Y-91258900D01*
X147253974Y-91388853D01*
X147013853Y-91628974D01*
X146987500Y-91692596D01*
X146961147Y-91628974D01*
X146721026Y-91388853D01*
X146407292Y-91258900D01*
X146067708Y-91258900D01*
X145753974Y-91388853D01*
X145513853Y-91628974D01*
X145487500Y-91692596D01*
X145461147Y-91628974D01*
X145221026Y-91388853D01*
X144907292Y-91258900D01*
X144567708Y-91258900D01*
X144253974Y-91388853D01*
X144013853Y-91628974D01*
X143987500Y-91692596D01*
X143961147Y-91628974D01*
X143721026Y-91388853D01*
X143407292Y-91258900D01*
X143067708Y-91258900D01*
X142753974Y-91388853D01*
X142513853Y-91628974D01*
X142487500Y-91692596D01*
X142461147Y-91628974D01*
X142221026Y-91388853D01*
X141907292Y-91258900D01*
X141567708Y-91258900D01*
X141253974Y-91388853D01*
X141013853Y-91628974D01*
X140987500Y-91692596D01*
X140961147Y-91628974D01*
X140721026Y-91388853D01*
X140407292Y-91258900D01*
X140067708Y-91258900D01*
X139753974Y-91388853D01*
X139513853Y-91628974D01*
X139383900Y-91942708D01*
X137272000Y-91942708D01*
X137272000Y-91051199D01*
X164690542Y-91051199D01*
X166790523Y-93151181D01*
G36*
X176671401Y-100244577D02*
X172483078Y-100232772D01*
X172483078Y-98399420D01*
X172652018Y-98230480D01*
X173396400Y-98230480D01*
X173396400Y-98669520D01*
X173564413Y-99075139D01*
X173874861Y-99385587D01*
X174280480Y-99553600D01*
X174719520Y-99553600D01*
X175125139Y-99385587D01*
X175435587Y-99075139D01*
X175603600Y-98669520D01*
X175603600Y-98230480D01*
X175435587Y-97824861D01*
X175125139Y-97514413D01*
X174719520Y-97346400D01*
X174280480Y-97346400D01*
X173874861Y-97514413D01*
X173564413Y-97824861D01*
X173396400Y-98230480D01*
X172652018Y-98230480D01*
X175138708Y-95743791D01*
X175179003Y-95716867D01*
X175285667Y-95557233D01*
X175313668Y-95416461D01*
X175313668Y-95416460D01*
X175323122Y-95368933D01*
X175313668Y-95321405D01*
X175313668Y-94676609D01*
X175346404Y-94627616D01*
X175364146Y-94538421D01*
X175364146Y-93638421D01*
X175346404Y-93549226D01*
X175295879Y-93473610D01*
X175267107Y-93454385D01*
X175270263Y-93453757D01*
X175345879Y-93403232D01*
X175396404Y-93327616D01*
X175414146Y-93238421D01*
X175414146Y-92638421D01*
X175396404Y-92549226D01*
X175345879Y-92473610D01*
X175270263Y-92423085D01*
X175181068Y-92405343D01*
X174281068Y-92405343D01*
X174191873Y-92423085D01*
X174116257Y-92473610D01*
X174081068Y-92526274D01*
X174045879Y-92473610D01*
X173970263Y-92423085D01*
X173881068Y-92405343D01*
X172981068Y-92405343D01*
X172891873Y-92423085D01*
X172816257Y-92473610D01*
X172765732Y-92549226D01*
X172759050Y-92582821D01*
X172529146Y-92582821D01*
X172529146Y-92125921D01*
X172511404Y-92036726D01*
X172460879Y-91961110D01*
X172457960Y-91959160D01*
X172532932Y-91884188D01*
X172575468Y-91781497D01*
X172575468Y-91533671D01*
X172701668Y-91533671D01*
X172701668Y-91793997D01*
X172744204Y-91896688D01*
X172822801Y-91975285D01*
X172925492Y-92017821D01*
X173335818Y-92017821D01*
X173405668Y-91947971D01*
X173405668Y-91463821D01*
X173456468Y-91463821D01*
X173456468Y-91947971D01*
X173526318Y-92017821D01*
X173936644Y-92017821D01*
X174039335Y-91975285D01*
X174081068Y-91933552D01*
X174122801Y-91975285D01*
X174225492Y-92017821D01*
X174635818Y-92017821D01*
X174705668Y-91947971D01*
X174705668Y-91463821D01*
X174756468Y-91463821D01*
X174756468Y-91947971D01*
X174826318Y-92017821D01*
X175236644Y-92017821D01*
X175339335Y-91975285D01*
X175417932Y-91896688D01*
X175460468Y-91793997D01*
X175460468Y-91533671D01*
X175390618Y-91463821D01*
X174756468Y-91463821D01*
X174705668Y-91463821D01*
X173456468Y-91463821D01*
X173405668Y-91463821D01*
X172771518Y-91463821D01*
X172701668Y-91533671D01*
X172575468Y-91533671D01*
X172575468Y-91446171D01*
X172505618Y-91376321D01*
X172181468Y-91376321D01*
X172181468Y-91396321D01*
X172130668Y-91396321D01*
X172130668Y-91376321D01*
X172110668Y-91376321D01*
X172110668Y-91325521D01*
X172130668Y-91325521D01*
X172130668Y-90766371D01*
X172181468Y-90766371D01*
X172181468Y-91325521D01*
X172505618Y-91325521D01*
X172575468Y-91255671D01*
X172575468Y-91082845D01*
X172701668Y-91082845D01*
X172701668Y-91343171D01*
X172771518Y-91413021D01*
X173405668Y-91413021D01*
X173405668Y-90928871D01*
X173456468Y-90928871D01*
X173456468Y-91413021D01*
X174705668Y-91413021D01*
X174705668Y-90928871D01*
X174756468Y-90928871D01*
X174756468Y-91413021D01*
X175390618Y-91413021D01*
X175460468Y-91343171D01*
X175460468Y-91082845D01*
X175417932Y-90980154D01*
X175339335Y-90901557D01*
X175236644Y-90859021D01*
X174826318Y-90859021D01*
X174756468Y-90928871D01*
X174705668Y-90928871D01*
X174635818Y-90859021D01*
X174225492Y-90859021D01*
X174122801Y-90901557D01*
X174081068Y-90943290D01*
X174039335Y-90901557D01*
X173936644Y-90859021D01*
X173526318Y-90859021D01*
X173456468Y-90928871D01*
X173405668Y-90928871D01*
X173335818Y-90859021D01*
X172925492Y-90859021D01*
X172822801Y-90901557D01*
X172744204Y-90980154D01*
X172701668Y-91082845D01*
X172575468Y-91082845D01*
X172575468Y-90920345D01*
X172532932Y-90817654D01*
X172454335Y-90739057D01*
X172351644Y-90696521D01*
X172251318Y-90696521D01*
X172181468Y-90766371D01*
X172130668Y-90766371D01*
X172060818Y-90696521D01*
X171960492Y-90696521D01*
X171857801Y-90739057D01*
X171844401Y-90752457D01*
X171796068Y-90742843D01*
X171516068Y-90742843D01*
X171467735Y-90752457D01*
X171454335Y-90739057D01*
X171351644Y-90696521D01*
X171251318Y-90696521D01*
X171181468Y-90766371D01*
X171181468Y-91325521D01*
X171201468Y-91325521D01*
X171201468Y-91376321D01*
X171181468Y-91376321D01*
X171181468Y-91396321D01*
X171130668Y-91396321D01*
X171130668Y-91376321D01*
X170806518Y-91376321D01*
X170736668Y-91446171D01*
X170736668Y-91781497D01*
X170779204Y-91884188D01*
X170854176Y-91959160D01*
X170851257Y-91961110D01*
X170800732Y-92036726D01*
X170782990Y-92125921D01*
X170782990Y-92520321D01*
X170550532Y-92520321D01*
X170533904Y-92436726D01*
X170483379Y-92361110D01*
X170407763Y-92310585D01*
X170318568Y-92292843D01*
X169018568Y-92292843D01*
X168929373Y-92310585D01*
X168853757Y-92361110D01*
X168803232Y-92436726D01*
X168801761Y-92444121D01*
X167304779Y-92444121D01*
X165931829Y-91071171D01*
X168739168Y-91071171D01*
X168739168Y-91381497D01*
X168781704Y-91484188D01*
X168860301Y-91562785D01*
X168962992Y-91605321D01*
X169573318Y-91605321D01*
X169643168Y-91535471D01*
X169643168Y-91001321D01*
X169693968Y-91001321D01*
X169693968Y-91535471D01*
X169763818Y-91605321D01*
X170374144Y-91605321D01*
X170476835Y-91562785D01*
X170555432Y-91484188D01*
X170597968Y-91381497D01*
X170597968Y-91071171D01*
X170528118Y-91001321D01*
X169693968Y-91001321D01*
X169643168Y-91001321D01*
X168809018Y-91001321D01*
X168739168Y-91071171D01*
X165931829Y-91071171D01*
X165431003Y-90570345D01*
X168739168Y-90570345D01*
X168739168Y-90880671D01*
X168809018Y-90950521D01*
X169643168Y-90950521D01*
X169643168Y-90416371D01*
X169693968Y-90416371D01*
X169693968Y-90950521D01*
X170528118Y-90950521D01*
X170558294Y-90920345D01*
X170736668Y-90920345D01*
X170736668Y-91255671D01*
X170806518Y-91325521D01*
X171130668Y-91325521D01*
X171130668Y-90766371D01*
X171060818Y-90696521D01*
X170960492Y-90696521D01*
X170857801Y-90739057D01*
X170779204Y-90817654D01*
X170736668Y-90920345D01*
X170558294Y-90920345D01*
X170597968Y-90880671D01*
X170597968Y-90570345D01*
X170555432Y-90467654D01*
X170476835Y-90389057D01*
X170374144Y-90346521D01*
X169763818Y-90346521D01*
X169693968Y-90416371D01*
X169643168Y-90416371D01*
X169573318Y-90346521D01*
X168962992Y-90346521D01*
X168860301Y-90389057D01*
X168781704Y-90467654D01*
X168739168Y-90570345D01*
X165431003Y-90570345D01*
X165204799Y-90344141D01*
X165194414Y-90328600D01*
X176671400Y-90328600D01*
X176671401Y-100244577D01*
X176671401Y-100244577D01*
G37*
X176671401Y-100244577D02*
X172483078Y-100232772D01*
X172483078Y-98399420D01*
X172652018Y-98230480D01*
X173396400Y-98230480D01*
X173396400Y-98669520D01*
X173564413Y-99075139D01*
X173874861Y-99385587D01*
X174280480Y-99553600D01*
X174719520Y-99553600D01*
X175125139Y-99385587D01*
X175435587Y-99075139D01*
X175603600Y-98669520D01*
X175603600Y-98230480D01*
X175435587Y-97824861D01*
X175125139Y-97514413D01*
X174719520Y-97346400D01*
X174280480Y-97346400D01*
X173874861Y-97514413D01*
X173564413Y-97824861D01*
X173396400Y-98230480D01*
X172652018Y-98230480D01*
X175138708Y-95743791D01*
X175179003Y-95716867D01*
X175285667Y-95557233D01*
X175313668Y-95416461D01*
X175313668Y-95416460D01*
X175323122Y-95368933D01*
X175313668Y-95321405D01*
X175313668Y-94676609D01*
X175346404Y-94627616D01*
X175364146Y-94538421D01*
X175364146Y-93638421D01*
X175346404Y-93549226D01*
X175295879Y-93473610D01*
X175267107Y-93454385D01*
X175270263Y-93453757D01*
X175345879Y-93403232D01*
X175396404Y-93327616D01*
X175414146Y-93238421D01*
X175414146Y-92638421D01*
X175396404Y-92549226D01*
X175345879Y-92473610D01*
X175270263Y-92423085D01*
X175181068Y-92405343D01*
X174281068Y-92405343D01*
X174191873Y-92423085D01*
X174116257Y-92473610D01*
X174081068Y-92526274D01*
X174045879Y-92473610D01*
X173970263Y-92423085D01*
X173881068Y-92405343D01*
X172981068Y-92405343D01*
X172891873Y-92423085D01*
X172816257Y-92473610D01*
X172765732Y-92549226D01*
X172759050Y-92582821D01*
X172529146Y-92582821D01*
X172529146Y-92125921D01*
X172511404Y-92036726D01*
X172460879Y-91961110D01*
X172457960Y-91959160D01*
X172532932Y-91884188D01*
X172575468Y-91781497D01*
X172575468Y-91533671D01*
X172701668Y-91533671D01*
X172701668Y-91793997D01*
X172744204Y-91896688D01*
X172822801Y-91975285D01*
X172925492Y-92017821D01*
X173335818Y-92017821D01*
X173405668Y-91947971D01*
X173405668Y-91463821D01*
X173456468Y-91463821D01*
X173456468Y-91947971D01*
X173526318Y-92017821D01*
X173936644Y-92017821D01*
X174039335Y-91975285D01*
X174081068Y-91933552D01*
X174122801Y-91975285D01*
X174225492Y-92017821D01*
X174635818Y-92017821D01*
X174705668Y-91947971D01*
X174705668Y-91463821D01*
X174756468Y-91463821D01*
X174756468Y-91947971D01*
X174826318Y-92017821D01*
X175236644Y-92017821D01*
X175339335Y-91975285D01*
X175417932Y-91896688D01*
X175460468Y-91793997D01*
X175460468Y-91533671D01*
X175390618Y-91463821D01*
X174756468Y-91463821D01*
X174705668Y-91463821D01*
X173456468Y-91463821D01*
X173405668Y-91463821D01*
X172771518Y-91463821D01*
X172701668Y-91533671D01*
X172575468Y-91533671D01*
X172575468Y-91446171D01*
X172505618Y-91376321D01*
X172181468Y-91376321D01*
X172181468Y-91396321D01*
X172130668Y-91396321D01*
X172130668Y-91376321D01*
X172110668Y-91376321D01*
X172110668Y-91325521D01*
X172130668Y-91325521D01*
X172130668Y-90766371D01*
X172181468Y-90766371D01*
X172181468Y-91325521D01*
X172505618Y-91325521D01*
X172575468Y-91255671D01*
X172575468Y-91082845D01*
X172701668Y-91082845D01*
X172701668Y-91343171D01*
X172771518Y-91413021D01*
X173405668Y-91413021D01*
X173405668Y-90928871D01*
X173456468Y-90928871D01*
X173456468Y-91413021D01*
X174705668Y-91413021D01*
X174705668Y-90928871D01*
X174756468Y-90928871D01*
X174756468Y-91413021D01*
X175390618Y-91413021D01*
X175460468Y-91343171D01*
X175460468Y-91082845D01*
X175417932Y-90980154D01*
X175339335Y-90901557D01*
X175236644Y-90859021D01*
X174826318Y-90859021D01*
X174756468Y-90928871D01*
X174705668Y-90928871D01*
X174635818Y-90859021D01*
X174225492Y-90859021D01*
X174122801Y-90901557D01*
X174081068Y-90943290D01*
X174039335Y-90901557D01*
X173936644Y-90859021D01*
X173526318Y-90859021D01*
X173456468Y-90928871D01*
X173405668Y-90928871D01*
X173335818Y-90859021D01*
X172925492Y-90859021D01*
X172822801Y-90901557D01*
X172744204Y-90980154D01*
X172701668Y-91082845D01*
X172575468Y-91082845D01*
X172575468Y-90920345D01*
X172532932Y-90817654D01*
X172454335Y-90739057D01*
X172351644Y-90696521D01*
X172251318Y-90696521D01*
X172181468Y-90766371D01*
X172130668Y-90766371D01*
X172060818Y-90696521D01*
X171960492Y-90696521D01*
X171857801Y-90739057D01*
X171844401Y-90752457D01*
X171796068Y-90742843D01*
X171516068Y-90742843D01*
X171467735Y-90752457D01*
X171454335Y-90739057D01*
X171351644Y-90696521D01*
X171251318Y-90696521D01*
X171181468Y-90766371D01*
X171181468Y-91325521D01*
X171201468Y-91325521D01*
X171201468Y-91376321D01*
X171181468Y-91376321D01*
X171181468Y-91396321D01*
X171130668Y-91396321D01*
X171130668Y-91376321D01*
X170806518Y-91376321D01*
X170736668Y-91446171D01*
X170736668Y-91781497D01*
X170779204Y-91884188D01*
X170854176Y-91959160D01*
X170851257Y-91961110D01*
X170800732Y-92036726D01*
X170782990Y-92125921D01*
X170782990Y-92520321D01*
X170550532Y-92520321D01*
X170533904Y-92436726D01*
X170483379Y-92361110D01*
X170407763Y-92310585D01*
X170318568Y-92292843D01*
X169018568Y-92292843D01*
X168929373Y-92310585D01*
X168853757Y-92361110D01*
X168803232Y-92436726D01*
X168801761Y-92444121D01*
X167304779Y-92444121D01*
X165931829Y-91071171D01*
X168739168Y-91071171D01*
X168739168Y-91381497D01*
X168781704Y-91484188D01*
X168860301Y-91562785D01*
X168962992Y-91605321D01*
X169573318Y-91605321D01*
X169643168Y-91535471D01*
X169643168Y-91001321D01*
X169693968Y-91001321D01*
X169693968Y-91535471D01*
X169763818Y-91605321D01*
X170374144Y-91605321D01*
X170476835Y-91562785D01*
X170555432Y-91484188D01*
X170597968Y-91381497D01*
X170597968Y-91071171D01*
X170528118Y-91001321D01*
X169693968Y-91001321D01*
X169643168Y-91001321D01*
X168809018Y-91001321D01*
X168739168Y-91071171D01*
X165931829Y-91071171D01*
X165431003Y-90570345D01*
X168739168Y-90570345D01*
X168739168Y-90880671D01*
X168809018Y-90950521D01*
X169643168Y-90950521D01*
X169643168Y-90416371D01*
X169693968Y-90416371D01*
X169693968Y-90950521D01*
X170528118Y-90950521D01*
X170558294Y-90920345D01*
X170736668Y-90920345D01*
X170736668Y-91255671D01*
X170806518Y-91325521D01*
X171130668Y-91325521D01*
X171130668Y-90766371D01*
X171060818Y-90696521D01*
X170960492Y-90696521D01*
X170857801Y-90739057D01*
X170779204Y-90817654D01*
X170736668Y-90920345D01*
X170558294Y-90920345D01*
X170597968Y-90880671D01*
X170597968Y-90570345D01*
X170555432Y-90467654D01*
X170476835Y-90389057D01*
X170374144Y-90346521D01*
X169763818Y-90346521D01*
X169693968Y-90416371D01*
X169643168Y-90416371D01*
X169573318Y-90346521D01*
X168962992Y-90346521D01*
X168860301Y-90389057D01*
X168781704Y-90467654D01*
X168739168Y-90570345D01*
X165431003Y-90570345D01*
X165204799Y-90344141D01*
X165194414Y-90328600D01*
X176671400Y-90328600D01*
X176671401Y-100244577D01*
G36*
X125922491Y-90494879D02*
X125572379Y-90844991D01*
X125382900Y-91302434D01*
X125382900Y-91797566D01*
X125538151Y-92172376D01*
X124930509Y-92780018D01*
X124902940Y-92798439D01*
X124884519Y-92826008D01*
X124884517Y-92826010D01*
X124829958Y-92907663D01*
X124804331Y-93036500D01*
X124807796Y-93053922D01*
X124791000Y-93053922D01*
X124701805Y-93071664D01*
X124626189Y-93122189D01*
X124575664Y-93197805D01*
X124557922Y-93287000D01*
X124557922Y-94587000D01*
X124575664Y-94676195D01*
X124626189Y-94751811D01*
X124701805Y-94802336D01*
X124791000Y-94820078D01*
X125491000Y-94820078D01*
X125580195Y-94802336D01*
X125655811Y-94751811D01*
X125706336Y-94676195D01*
X125724078Y-94587000D01*
X125724078Y-93287000D01*
X125706336Y-93197805D01*
X125655811Y-93122189D01*
X125580195Y-93071664D01*
X125574034Y-93070439D01*
X126005124Y-92639349D01*
X126379934Y-92794600D01*
X126875066Y-92794600D01*
X127332509Y-92605121D01*
X127682621Y-92255009D01*
X127795788Y-91981800D01*
X130074722Y-91981800D01*
X130074722Y-92275600D01*
X130092464Y-92364795D01*
X130142989Y-92440411D01*
X130218605Y-92490936D01*
X130226000Y-92492407D01*
X130226001Y-92511393D01*
X130218605Y-92512864D01*
X130142989Y-92563389D01*
X130092464Y-92639005D01*
X130074722Y-92728200D01*
X130074722Y-94028200D01*
X130092464Y-94117395D01*
X130142989Y-94193011D01*
X130218605Y-94243536D01*
X130307800Y-94261278D01*
X131007800Y-94261278D01*
X131096995Y-94243536D01*
X131172611Y-94193011D01*
X131223136Y-94117395D01*
X131240878Y-94028200D01*
X131240878Y-92728200D01*
X131223136Y-92639005D01*
X131172611Y-92563389D01*
X131096995Y-92512864D01*
X131089600Y-92511393D01*
X131089600Y-92492407D01*
X131096995Y-92490936D01*
X131172611Y-92440411D01*
X131223136Y-92364795D01*
X131240878Y-92275600D01*
X131240878Y-91051199D01*
X131974722Y-91051199D01*
X131974722Y-91858505D01*
X131739509Y-92093718D01*
X131711940Y-92112139D01*
X131693519Y-92139708D01*
X131693517Y-92139710D01*
X131638958Y-92221363D01*
X131613331Y-92350200D01*
X131619801Y-92382727D01*
X131619800Y-94879422D01*
X131450000Y-94879422D01*
X131360805Y-94897164D01*
X131285189Y-94947689D01*
X131234664Y-95023305D01*
X131216922Y-95112500D01*
X131216922Y-95132300D01*
X129461773Y-95132300D01*
X129142700Y-94813227D01*
X129142700Y-93431118D01*
X129168573Y-93420401D01*
X129345401Y-93243573D01*
X129441100Y-93012536D01*
X129441100Y-92762464D01*
X129345401Y-92531427D01*
X129168573Y-92354599D01*
X128937536Y-92258900D01*
X128687464Y-92258900D01*
X128456427Y-92354599D01*
X128279599Y-92531427D01*
X128183900Y-92762464D01*
X128183900Y-92908900D01*
X127987464Y-92908900D01*
X127756427Y-93004599D01*
X127579599Y-93181427D01*
X127483900Y-93412464D01*
X127483900Y-93571400D01*
X127299964Y-93571400D01*
X127068927Y-93667099D01*
X126892099Y-93843927D01*
X126796400Y-94074964D01*
X126796400Y-94233900D01*
X126599964Y-94233900D01*
X126368927Y-94329599D01*
X126192099Y-94506427D01*
X126096400Y-94737464D01*
X126096400Y-94987536D01*
X126192099Y-95218573D01*
X126368927Y-95395401D01*
X126394800Y-95406118D01*
X126394800Y-95545021D01*
X126394801Y-95545025D01*
X126394800Y-95979977D01*
X126388331Y-96012500D01*
X126413958Y-96141337D01*
X126417852Y-96147164D01*
X126486939Y-96250560D01*
X126514509Y-96268982D01*
X127177827Y-96932300D01*
X126749274Y-96932300D01*
X124417700Y-94600727D01*
X124417700Y-93969521D01*
X124424169Y-93937000D01*
X124417700Y-93904478D01*
X124417700Y-92760372D01*
X124792509Y-92605121D01*
X125142621Y-92255009D01*
X125332100Y-91797566D01*
X125332100Y-91302434D01*
X125142621Y-90844991D01*
X124792509Y-90494879D01*
X124391076Y-90328600D01*
X126323924Y-90328600D01*
X125922491Y-90494879D01*
X125922491Y-90494879D01*
G37*
X125922491Y-90494879D02*
X125572379Y-90844991D01*
X125382900Y-91302434D01*
X125382900Y-91797566D01*
X125538151Y-92172376D01*
X124930509Y-92780018D01*
X124902940Y-92798439D01*
X124884519Y-92826008D01*
X124884517Y-92826010D01*
X124829958Y-92907663D01*
X124804331Y-93036500D01*
X124807796Y-93053922D01*
X124791000Y-93053922D01*
X124701805Y-93071664D01*
X124626189Y-93122189D01*
X124575664Y-93197805D01*
X124557922Y-93287000D01*
X124557922Y-94587000D01*
X124575664Y-94676195D01*
X124626189Y-94751811D01*
X124701805Y-94802336D01*
X124791000Y-94820078D01*
X125491000Y-94820078D01*
X125580195Y-94802336D01*
X125655811Y-94751811D01*
X125706336Y-94676195D01*
X125724078Y-94587000D01*
X125724078Y-93287000D01*
X125706336Y-93197805D01*
X125655811Y-93122189D01*
X125580195Y-93071664D01*
X125574034Y-93070439D01*
X126005124Y-92639349D01*
X126379934Y-92794600D01*
X126875066Y-92794600D01*
X127332509Y-92605121D01*
X127682621Y-92255009D01*
X127795788Y-91981800D01*
X130074722Y-91981800D01*
X130074722Y-92275600D01*
X130092464Y-92364795D01*
X130142989Y-92440411D01*
X130218605Y-92490936D01*
X130226000Y-92492407D01*
X130226001Y-92511393D01*
X130218605Y-92512864D01*
X130142989Y-92563389D01*
X130092464Y-92639005D01*
X130074722Y-92728200D01*
X130074722Y-94028200D01*
X130092464Y-94117395D01*
X130142989Y-94193011D01*
X130218605Y-94243536D01*
X130307800Y-94261278D01*
X131007800Y-94261278D01*
X131096995Y-94243536D01*
X131172611Y-94193011D01*
X131223136Y-94117395D01*
X131240878Y-94028200D01*
X131240878Y-92728200D01*
X131223136Y-92639005D01*
X131172611Y-92563389D01*
X131096995Y-92512864D01*
X131089600Y-92511393D01*
X131089600Y-92492407D01*
X131096995Y-92490936D01*
X131172611Y-92440411D01*
X131223136Y-92364795D01*
X131240878Y-92275600D01*
X131240878Y-91051199D01*
X131974722Y-91051199D01*
X131974722Y-91858505D01*
X131739509Y-92093718D01*
X131711940Y-92112139D01*
X131693519Y-92139708D01*
X131693517Y-92139710D01*
X131638958Y-92221363D01*
X131613331Y-92350200D01*
X131619801Y-92382727D01*
X131619800Y-94879422D01*
X131450000Y-94879422D01*
X131360805Y-94897164D01*
X131285189Y-94947689D01*
X131234664Y-95023305D01*
X131216922Y-95112500D01*
X131216922Y-95132300D01*
X129461773Y-95132300D01*
X129142700Y-94813227D01*
X129142700Y-93431118D01*
X129168573Y-93420401D01*
X129345401Y-93243573D01*
X129441100Y-93012536D01*
X129441100Y-92762464D01*
X129345401Y-92531427D01*
X129168573Y-92354599D01*
X128937536Y-92258900D01*
X128687464Y-92258900D01*
X128456427Y-92354599D01*
X128279599Y-92531427D01*
X128183900Y-92762464D01*
X128183900Y-92908900D01*
X127987464Y-92908900D01*
X127756427Y-93004599D01*
X127579599Y-93181427D01*
X127483900Y-93412464D01*
X127483900Y-93571400D01*
X127299964Y-93571400D01*
X127068927Y-93667099D01*
X126892099Y-93843927D01*
X126796400Y-94074964D01*
X126796400Y-94233900D01*
X126599964Y-94233900D01*
X126368927Y-94329599D01*
X126192099Y-94506427D01*
X126096400Y-94737464D01*
X126096400Y-94987536D01*
X126192099Y-95218573D01*
X126368927Y-95395401D01*
X126394800Y-95406118D01*
X126394800Y-95545021D01*
X126394801Y-95545025D01*
X126394800Y-95979977D01*
X126388331Y-96012500D01*
X126413958Y-96141337D01*
X126417852Y-96147164D01*
X126486939Y-96250560D01*
X126514509Y-96268982D01*
X127177827Y-96932300D01*
X126749274Y-96932300D01*
X124417700Y-94600727D01*
X124417700Y-93969521D01*
X124424169Y-93937000D01*
X124417700Y-93904478D01*
X124417700Y-92760372D01*
X124792509Y-92605121D01*
X125142621Y-92255009D01*
X125332100Y-91797566D01*
X125332100Y-91302434D01*
X125142621Y-90844991D01*
X124792509Y-90494879D01*
X124391076Y-90328600D01*
X126323924Y-90328600D01*
X125922491Y-90494879D01*
G36*
X130551400Y-90344144D02*
X130382543Y-90513000D01*
X130346490Y-90537090D01*
X130251054Y-90679921D01*
X130235751Y-90756853D01*
X130218605Y-90760264D01*
X130142989Y-90810789D01*
X130092464Y-90886405D01*
X130074722Y-90975600D01*
X130074722Y-91118200D01*
X127795788Y-91118200D01*
X127682621Y-90844991D01*
X127332509Y-90494879D01*
X126931076Y-90328600D01*
X130561786Y-90328600D01*
X130551400Y-90344144D01*
X130551400Y-90344144D01*
G37*
X130551400Y-90344144D02*
X130382543Y-90513000D01*
X130346490Y-90537090D01*
X130251054Y-90679921D01*
X130235751Y-90756853D01*
X130218605Y-90760264D01*
X130142989Y-90810789D01*
X130092464Y-90886405D01*
X130074722Y-90975600D01*
X130074722Y-91118200D01*
X127795788Y-91118200D01*
X127682621Y-90844991D01*
X127332509Y-90494879D01*
X126931076Y-90328600D01*
X130561786Y-90328600D01*
X130551400Y-90344144D01*
G04 #@! TD*
M02*
