EESchema Schematic File Version 4
LIBS:hygro-sensor-cache
EELAYER 26 0
EELAYER END
$Descr USLetter 11000 8500
encoding utf-8
Sheet 1 1
Title "Hygro Sensor"
Date ""
Rev "1.1"
Comp "Kir Morton"
Comment1 ""
Comment2 ""
Comment3 ""
Comment4 ""
$EndDescr
$Comp
L ti:TPS61098 U2
U 1 1 5B787C83
P 4800 2400
F 0 "U2" H 4800 2775 50  0000 C CNN
F 1 "TPS61098" H 4800 2684 50  0000 C CNN
F 2 "ti:TI_PWSON6" H 4800 2050 100 0001 C CNN
F 3 "" H 4800 2050 100 0001 C CNN
F 4 "TPS61098DSER" H 4800 2400 50  0001 C CNN "Manufacturer Part Number"
F 5 "595-TPS61098DSER" H 4800 2400 50  0001 C CNN "Distributer Part Number"
F 6 "Texas Instruments" H 4800 2400 50  0001 C CNN "Manufacturer"
F 7 "Mouser" H 4800 2400 50  0001 C CNN "Distributer"
	1    4800 2400
	1    0    0    -1  
$EndComp
$Comp
L passive:Inductor L1
U 1 1 5B787D31
P 3750 2100
F 0 "L1" H 3750 2200 60  0000 C CNN
F 1 "4.7uH" H 3750 2050 60  0000 C CNN
F 2 "bourns_inc:SRN6045TA" H 3750 2100 60  0001 C CNN
F 3 "" H 3750 2100 60  0000 C CNN
F 4 "LQH44PZ4R7MGRL" H 3750 2100 50  0001 C CNN "Manufacturer Part Number"
F 5 "81-LQH44PZ4R7MGRL" H 3750 2100 50  0001 C CNN "Distributer Part Number"
F 6 "Murata" H 3750 2100 50  0001 C CNN "Manufacturer"
F 7 "Mouser" H 3750 2100 50  0001 C CNN "Distributer"
	1    3750 2100
	1    0    0    -1  
$EndComp
$Comp
L passive:Resistor R1
U 1 1 5B787E32
P 3750 2400
F 0 "R1" H 3750 2300 60  0000 C CNN
F 1 "430m" H 3750 2541 60  0000 C CNN
F 2 "passive_smd:R_0603" H 3750 2400 60  0001 C CNN
F 3 "" H 3750 2400 60  0000 C CNN
F 4 "ERJ-3RQFR43V" H 3750 2400 50  0001 C CNN "Manufacturer Part Number"
F 5 "667-ERJ-3RQFR43V" H 3750 2400 50  0001 C CNN "Distributer Part Number"
F 6 "Panasonic" H 3750 2400 50  0001 C CNN "Manufacturer"
F 7 "Mouser" H 3750 2400 50  0001 C CNN "Distributer"
	1    3750 2400
	1    0    0    -1  
$EndComp
$Comp
L passive:Capacitor C1
U 1 1 5B787F06
P 3400 2600
F 0 "C1" H 3400 2700 60  0000 C CNN
F 1 "10uF" H 3400 2500 60  0000 C CNN
F 2 "passive_smd:C_0603" H 3400 2600 60  0001 C CNN
F 3 "" H 3400 2600 60  0000 C CNN
F 4 "C1608X5R0J106K080AE" H 3400 2600 50  0001 C CNN "Manufacturer Part Number"
F 5 "810-C1608X5R0J106KE" H 3400 2600 50  0001 C CNN "Distributer Part Number"
F 6 "TDK" H 3400 2600 50  0001 C CNN "Manufacturer"
F 7 "Mouser" H 3400 2600 50  0001 C CNN "Distributer"
	1    3400 2600
	0    -1   -1   0   
$EndComp
$Comp
L passive:Capacitor C3
U 1 1 5B787FBD
P 4100 2600
F 0 "C3" H 4100 2700 60  0000 C CNN
F 1 "0.1uF" H 4100 2500 60  0000 C CNN
F 2 "passive_smd:C_0603" H 4100 2600 60  0001 C CNN
F 3 "" H 4100 2600 60  0000 C CNN
F 4 "Mouser" H 0   0   50  0001 C CNN "Distributer"
F 5 "710-885012006038" H 0   0   50  0001 C CNN "Distributer Part Number"
F 6 "Wurth Electronics" H 0   0   50  0001 C CNN "Manufacturer"
F 7 "885012006038" H 0   0   50  0001 C CNN "Manufacturer Part Number"
	1    4100 2600
	0    1    1    0   
$EndComp
$Comp
L passive:Capacitor C4
U 1 1 5B788077
P 5500 2600
F 0 "C4" H 5500 2700 60  0000 C CNN
F 1 "22uF" H 5500 2500 60  0000 C CNN
F 2 "passive_smd:C_0805" H 5500 2600 60  0001 C CNN
F 3 "" H 5500 2600 60  0000 C CNN
F 4 "GRM21BR61A226ME51K" H 5500 2600 50  0001 C CNN "Manufacturer Part Number"
F 5 "81-GRM21BR61A226ME1K" H 5500 2600 50  0001 C CNN "Distributer Part Number"
F 6 "Murata" H 5500 2600 50  0001 C CNN "Manufacturer"
F 7 "Mouser" H 5500 2600 50  0001 C CNN "Distributer"
	1    5500 2600
	0    1    1    0   
$EndComp
$Comp
L power:GND #PWR04
U 1 1 5B788961
P 3400 2800
F 0 "#PWR04" H 3400 2665 20  0001 C CNN
F 1 "GND" H 3400 2650 50  0000 C CNN
F 2 "" H 3400 2800 60  0000 C CNN
F 3 "" H 3400 2800 60  0000 C CNN
	1    3400 2800
	1    0    0    -1  
$EndComp
$Comp
L power:GND #PWR07
U 1 1 5B788998
P 4100 2800
F 0 "#PWR07" H 4100 2665 20  0001 C CNN
F 1 "GND" H 4100 2650 50  0000 C CNN
F 2 "" H 4100 2800 60  0000 C CNN
F 3 "" H 4100 2800 60  0000 C CNN
	1    4100 2800
	1    0    0    -1  
$EndComp
$Comp
L power:GND #PWR08
U 1 1 5B7889F6
P 4350 2800
F 0 "#PWR08" H 4350 2665 20  0001 C CNN
F 1 "GND" H 4350 2650 50  0000 C CNN
F 2 "" H 4350 2800 60  0000 C CNN
F 3 "" H 4350 2800 60  0000 C CNN
	1    4350 2800
	1    0    0    -1  
$EndComp
Wire Wire Line
	4350 2800 4350 2550
Wire Wire Line
	4350 2550 4400 2550
$Comp
L power:GND #PWR09
U 1 1 5B788A92
P 5250 2800
F 0 "#PWR09" H 5250 2665 20  0001 C CNN
F 1 "GND" H 5250 2650 50  0000 C CNN
F 2 "" H 5250 2800 60  0000 C CNN
F 3 "" H 5250 2800 60  0000 C CNN
	1    5250 2800
	1    0    0    -1  
$EndComp
Wire Wire Line
	5200 2550 5250 2550
Wire Wire Line
	5250 2550 5250 2800
Wire Wire Line
	5500 2250 5500 2450
$Comp
L power:GND #PWR011
U 1 1 5B789017
P 5500 2800
F 0 "#PWR011" H 5500 2665 20  0001 C CNN
F 1 "GND" H 5500 2650 50  0000 C CNN
F 2 "" H 5500 2800 60  0000 C CNN
F 3 "" H 5500 2800 60  0000 C CNN
	1    5500 2800
	1    0    0    -1  
$EndComp
Wire Wire Line
	5500 2800 5500 2750
Wire Wire Line
	4100 2750 4100 2800
Wire Wire Line
	3400 2750 3400 2800
$Comp
L power:VCC #PWR010
U 1 1 5B789C8B
P 5500 2200
F 0 "#PWR010" H 5500 2340 20  0001 C CNN
F 1 "VCC" H 5501 2374 50  0000 C CNN
F 2 "" H 5500 2200 60  0000 C CNN
F 3 "" H 5500 2200 60  0000 C CNN
	1    5500 2200
	1    0    0    -1  
$EndComp
Wire Wire Line
	5500 2200 5500 2250
Connection ~ 5500 2250
$Comp
L conn:CONN_1X2 J1
U 1 1 5B78A75D
P 2450 2500
F 0 "J1" H 2450 2350 60  0000 C CNN
F 1 "BATT" V 2550 2500 60  0000 C CNN
F 2 "eagle_plastic_devices:12BH311P-GR" H 2450 2550 60  0001 C CNN
F 3 "" H 2450 2550 60  0000 C CNN
F 4 "12BH311P-GR" H 2450 2500 50  0001 C CNN "Manufacturer Part Number"
F 5 "12BH311P-GR" H 2450 2500 50  0001 C CNN "Distributer Part Number"
F 6 "Eagle Plastic Devices" H 2450 2500 50  0001 C CNN "Manufacturer"
F 7 "Mouser" H 2450 2500 50  0001 C CNN "Distributer"
	1    2450 2500
	-1   0    0    1   
$EndComp
Wire Wire Line
	4400 2400 4100 2400
$Comp
L power:GND #PWR01
U 1 1 5B78AA41
P 2650 2800
F 0 "#PWR01" H 2650 2665 20  0001 C CNN
F 1 "GND" H 2650 2650 50  0000 C CNN
F 2 "" H 2650 2800 60  0000 C CNN
F 3 "" H 2650 2800 60  0000 C CNN
	1    2650 2800
	1    0    0    -1  
$EndComp
Wire Wire Line
	2650 2800 2650 2550
Wire Wire Line
	2650 2550 2600 2550
Text Notes 3450 1700 0    100  Italic 20
Power Suppy
Wire Notes Line width 10
	2100 1450 2100 3100
Wire Notes Line width 10
	5700 3100 5700 1450
Wire Notes Line width 10
	5700 1450 2100 1450
$Comp
L ti:HDC2080 U4
U 1 1 5B78E9AF
P 7250 2800
F 0 "U4" H 7250 3197 60  0000 C CNN
F 1 "HDC2080" H 7250 3091 60  0000 C CNN
F 2 "ti:TI_WSON6" H 7300 2550 60  0001 C CNN
F 3 "" H 7300 2550 60  0001 C CNN
F 4 "HDC2080DMBT" H 7250 2800 50  0001 C CNN "Manufacturer Part Number"
F 5 "595-HDC2080DMBT" H 7250 2800 50  0001 C CNN "Distributer Part Number"
F 6 "Texas Instruments" H 7250 2800 50  0001 C CNN "Manufacturer"
F 7 "Mouser" H 7250 2800 50  0001 C CNN "Distributer"
	1    7250 2800
	1    0    0    -1  
$EndComp
$Comp
L passive:Capacitor C5
U 1 1 5B78EAF4
P 7900 2850
F 0 "C5" V 7847 2938 60  0000 L CNN
F 1 "0.1uF" V 7953 2938 60  0000 L CNN
F 2 "passive_smd:C_0603" H 7900 2850 60  0001 C CNN
F 3 "" H 7900 2850 60  0000 C CNN
F 4 "Mouser" H 0   0   50  0001 C CNN "Distributer"
F 5 "710-885012006038" H 0   0   50  0001 C CNN "Distributer Part Number"
F 6 "Wurth Electronics" H 0   0   50  0001 C CNN "Manufacturer"
F 7 "885012006038" H 0   0   50  0001 C CNN "Manufacturer Part Number"
	1    7900 2850
	0    1    1    0   
$EndComp
$Comp
L power:GND #PWR016
U 1 1 5B78F0D3
P 7900 3050
F 0 "#PWR016" H 7900 2915 20  0001 C CNN
F 1 "GND" H 7900 2900 50  0000 C CNN
F 2 "" H 7900 3050 60  0000 C CNN
F 3 "" H 7900 3050 60  0000 C CNN
	1    7900 3050
	1    0    0    -1  
$EndComp
$Comp
L power:GND #PWR014
U 1 1 5B78F0FC
P 7700 3050
F 0 "#PWR014" H 7700 2915 20  0001 C CNN
F 1 "GND" H 7700 2900 50  0000 C CNN
F 2 "" H 7700 3050 60  0000 C CNN
F 3 "" H 7700 3050 60  0000 C CNN
	1    7700 3050
	1    0    0    -1  
$EndComp
Wire Wire Line
	7650 2950 7700 2950
Wire Wire Line
	7700 2950 7700 3050
Wire Wire Line
	7900 3000 7900 3050
Wire Wire Line
	7650 2650 7900 2650
Wire Wire Line
	7900 2650 7900 2700
$Comp
L passive:Resistor R2
U 1 1 5B790505
P 6400 2400
F 0 "R2" V 6350 2300 60  0000 R CNN
F 1 "10k" V 6450 2300 60  0000 R CNN
F 2 "passive_smd:R_0805" H 6400 2400 60  0001 C CNN
F 3 "" H 6400 2400 60  0000 C CNN
F 4 "Mouser" H 0   0   50  0001 C CNN "Distributer"
F 5 "755-ESR03EZPJ103" H 0   0   50  0001 C CNN "Distributer Part Number"
F 6 "ROHM Semiconductor" H 0   0   50  0001 C CNN "Manufacturer"
F 7 "ESR03EZPJ103" H 0   0   50  0001 C CNN "Manufacturer Part Number"
	1    6400 2400
	0    1    1    0   
$EndComp
$Comp
L passive:Resistor R3
U 1 1 5B79056B
P 6600 2400
F 0 "R3" V 6547 2488 60  0000 L CNN
F 1 "10k" V 6653 2488 60  0000 L CNN
F 2 "passive_smd:R_0805" H 6600 2400 60  0001 C CNN
F 3 "" H 6600 2400 60  0000 C CNN
F 4 "Mouser" H 0   0   50  0001 C CNN "Distributer"
F 5 "755-ESR03EZPJ103" H 0   0   50  0001 C CNN "Distributer Part Number"
F 6 "ROHM Semiconductor" H 0   0   50  0001 C CNN "Manufacturer"
F 7 "ESR03EZPJ103" H 0   0   50  0001 C CNN "Manufacturer Part Number"
	1    6600 2400
	0    1    1    0   
$EndComp
Wire Wire Line
	6600 2600 6600 2650
Wire Wire Line
	6600 2650 6850 2650
Wire Wire Line
	6400 2600 6400 2750
Wire Wire Line
	6400 2750 6850 2750
$Comp
L power:VCC #PWR012
U 1 1 5B790FA5
P 6400 2150
F 0 "#PWR012" H 6400 2290 20  0001 C CNN
F 1 "VCC" H 6401 2324 50  0000 C CNN
F 2 "" H 6400 2150 60  0000 C CNN
F 3 "" H 6400 2150 60  0000 C CNN
	1    6400 2150
	1    0    0    -1  
$EndComp
$Comp
L power:VCC #PWR013
U 1 1 5B790FCF
P 6600 2150
F 0 "#PWR013" H 6600 2290 20  0001 C CNN
F 1 "VCC" H 6601 2324 50  0000 C CNN
F 2 "" H 6600 2150 60  0000 C CNN
F 3 "" H 6600 2150 60  0000 C CNN
	1    6600 2150
	1    0    0    -1  
$EndComp
Wire Wire Line
	6600 2150 6600 2200
Wire Wire Line
	6400 2150 6400 2200
$Comp
L power:VCC #PWR015
U 1 1 5B79199E
P 7900 2150
F 0 "#PWR015" H 7900 2290 20  0001 C CNN
F 1 "VCC" H 7901 2324 50  0000 C CNN
F 2 "" H 7900 2150 60  0000 C CNN
F 3 "" H 7900 2150 60  0000 C CNN
	1    7900 2150
	1    0    0    -1  
$EndComp
Wire Wire Line
	7900 2150 7900 2650
Connection ~ 7900 2650
Text Label 6150 2650 0    50   ~ 0
SDA
Text Label 6150 2750 0    50   ~ 0
SCL
Wire Notes Line width 10
	6000 1450 6000 3500
Wire Notes Line width 10
	8400 3500 8400 1450
Text Notes 6450 1700 0    100  Italic 20
Hygrometer Sensor
Wire Notes Line width 10
	2100 3100 5700 3100
Wire Notes Line width 10
	6000 3500 8400 3500
Wire Notes Line width 10
	8400 1450 6000 1450
$Comp
L microcontroller:ATTINY406 U1
U 1 1 5B78EF45
P 4450 4600
F 0 "U1" H 4450 5397 60  0000 C CNN
F 1 "ATTINY406" H 4450 5291 60  0000 C CNN
F 2 "atmel:ATMEL_VQFN20" H 5300 4300 60  0001 C CNN
F 3 "" H 5300 4300 60  0001 C CNN
F 4 "ATTINY406-MFR" H 4450 4600 50  0001 C CNN "Manufacturer Part Number"
F 5 "579-ATTINY406-MFR" H 4450 4600 50  0001 C CNN "Distributer Part Number"
F 6 "Microchip" H 4450 4600 50  0001 C CNN "Manufacturer"
F 7 "Mouser" H 4450 4600 50  0001 C CNN "Distributer"
	1    4450 4600
	1    0    0    -1  
$EndComp
$Comp
L power:VCC #PWR06
U 1 1 5B78F052
P 3250 3800
F 0 "#PWR06" H 3250 3940 20  0001 C CNN
F 1 "VCC" H 3251 3974 50  0000 C CNN
F 2 "" H 3250 3800 60  0000 C CNN
F 3 "" H 3250 3800 60  0000 C CNN
	1    3250 3800
	1    0    0    -1  
$EndComp
Wire Wire Line
	3250 3800 3250 4050
Wire Wire Line
	3250 4050 3850 4050
Text Label 5250 4100 2    50   ~ 0
SCL
Text Label 5250 4200 2    50   ~ 0
SDA
$Comp
L power:GND #PWR05
U 1 1 5B7903E9
P 3750 5200
F 0 "#PWR05" H 3750 5065 20  0001 C CNN
F 1 "GND" H 3750 5050 50  0000 C CNN
F 2 "" H 3750 5200 60  0000 C CNN
F 3 "" H 3750 5200 60  0000 C CNN
	1    3750 5200
	1    0    0    -1  
$EndComp
Wire Wire Line
	3750 5200 3750 5150
Wire Wire Line
	3750 5050 3850 5050
Wire Wire Line
	3850 5150 3750 5150
Connection ~ 3750 5150
Wire Wire Line
	3750 5150 3750 5050
$Comp
L passive:Capacitor C2
U 1 1 5B791201
P 3250 4500
F 0 "C2" V 3197 4588 60  0000 L CNN
F 1 "0.1uF" V 3303 4588 60  0000 L CNN
F 2 "passive_smd:C_0603" H 3250 4500 60  0001 C CNN
F 3 "" H 3250 4500 60  0000 C CNN
F 4 "Mouser" H 0   0   50  0001 C CNN "Distributer"
F 5 "710-885012006038" H 0   0   50  0001 C CNN "Distributer Part Number"
F 6 "Wurth Electronics" H 0   0   50  0001 C CNN "Manufacturer"
F 7 "885012006038" H 0   0   50  0001 C CNN "Manufacturer Part Number"
	1    3250 4500
	0    -1   -1   0   
$EndComp
$Comp
L power:GND #PWR03
U 1 1 5B791A87
P 3250 4700
F 0 "#PWR03" H 3250 4565 20  0001 C CNN
F 1 "GND" H 3250 4550 50  0000 C CNN
F 2 "" H 3250 4700 60  0000 C CNN
F 3 "" H 3250 4700 60  0000 C CNN
	1    3250 4700
	1    0    0    -1  
$EndComp
$Comp
L conn:CONN_1X3 J2
U 1 1 5B7923A8
P 2300 4200
F 0 "J2" H 2300 4000 60  0000 C CNN
F 1 "PROG" V 2400 4200 60  0000 C CNN
F 2 "generic_th:0.1IN_HDR_1x3" H 2300 4300 60  0001 C CNN
F 3 "" H 2300 4300 60  0000 C CNN
	1    2300 4200
	-1   0    0    1   
$EndComp
Wire Wire Line
	3850 4200 2900 4200
$Comp
L power:VCC #PWR02
U 1 1 5B795BC7
P 2500 3800
F 0 "#PWR02" H 2500 3940 20  0001 C CNN
F 1 "VCC" H 2501 3974 50  0000 C CNN
F 2 "" H 2500 3800 60  0000 C CNN
F 3 "" H 2500 3800 60  0000 C CNN
	1    2500 3800
	1    0    0    -1  
$EndComp
Wire Wire Line
	2450 4100 2500 4100
Wire Wire Line
	2500 4100 2500 3800
Entry Wire Line
	3350 4400 3450 4300
Entry Wire Line
	3350 4500 3450 4400
Entry Wire Line
	3350 4600 3450 4500
Entry Wire Line
	3350 4700 3450 4600
Entry Wire Line
	3350 4800 3450 4700
Entry Wire Line
	3350 4900 3450 4800
Entry Wire Line
	3350 5000 3450 4900
Entry Wire Line
	5250 4800 5350 4900
Entry Wire Line
	5250 4600 5350 4700
Entry Wire Line
	5250 4900 5350 5000
Entry Wire Line
	5250 5000 5350 5100
Entry Wire Line
	5250 5100 5350 5200
Wire Bus Line
	3450 5600 5350 5600
Wire Wire Line
	5050 4600 5250 4600
Wire Wire Line
	5050 4800 5250 4800
Wire Wire Line
	5050 4900 5250 4900
Wire Wire Line
	5050 5000 5250 5000
Wire Wire Line
	5050 5100 5250 5100
Text Label 5250 4800 2    50   ~ 0
COM0
Text Label 5250 4900 2    50   ~ 0
COM1
Text Label 5250 5000 2    50   ~ 0
COM2
Text Label 5250 5100 2    50   ~ 0
COM3
Text Label 3850 4300 2    50   ~ 0
DEGF0
Entry Bus Bus
	3350 5500 3450 5600
Text Label 3850 4400 2    50   ~ 0
PCBA0
Wire Wire Line
	3450 4300 3850 4300
Wire Wire Line
	3450 4400 3850 4400
Wire Wire Line
	3450 4500 3850 4500
Wire Wire Line
	3450 4600 3850 4600
Wire Wire Line
	3450 4700 3850 4700
Wire Wire Line
	3450 4800 3850 4800
Wire Wire Line
	3450 4900 3850 4900
Text Label 3850 4500 2    50   ~ 0
DEGF1
Text Label 3850 4700 2    50   ~ 0
DEGF2
Text Label 3850 4900 2    50   ~ 0
DEGF3
Text Label 3850 4600 2    50   ~ 0
PCBA1
Text Label 3850 4800 2    50   ~ 0
PCBA2
Text Label 5050 4600 0    50   ~ 0
PCBA3
$Comp
L lumex:S401M16KR U3
U 1 1 5B7C00F7
P 7050 4750
F 0 "U3" V 7091 4272 50  0000 R CNN
F 1 "S401M16KR" V 7000 4272 50  0000 R CNN
F 2 "lumex:LUMEX_S401M16KR" H 7060 4750 50  0001 C CNN
F 3 "" H 7060 4750 50  0001 C CNN
F 4 "LCD-S401M16KR" H 7050 4750 50  0001 C CNN "Manufacturer Part Number"
F 5 "696-LCD-S401M16KR" H 7050 4750 50  0001 C CNN "Distributer Part Number"
F 6 "Lumex" H 7050 4750 50  0001 C CNN "Manufacturer"
F 7 "Mouser" H 7050 4750 50  0001 C CNN "Distributer"
	1    7050 4750
	0    -1   -1   0   
$EndComp
Wire Wire Line
	6650 4200 6400 4200
Entry Wire Line
	6300 4300 6400 4200
Entry Wire Line
	6300 4400 6400 4300
Entry Wire Line
	6300 4500 6400 4400
Entry Wire Line
	6300 4600 6400 4500
Entry Wire Line
	6300 4700 6400 4600
Entry Wire Line
	6300 4800 6400 4700
Entry Wire Line
	6300 4900 6400 4800
Entry Wire Line
	6300 5000 6400 4900
Entry Wire Line
	6300 5100 6400 5000
Entry Wire Line
	6300 5200 6400 5100
Entry Wire Line
	6300 5300 6400 5200
Entry Wire Line
	6300 5400 6400 5300
Wire Wire Line
	6400 4300 6650 4300
Wire Wire Line
	6650 4400 6400 4400
Wire Wire Line
	6400 4500 6650 4500
Wire Wire Line
	6650 4600 6400 4600
Wire Wire Line
	6650 4700 6400 4700
Wire Wire Line
	6650 4800 6400 4800
Wire Wire Line
	6650 4900 6400 4900
Wire Wire Line
	6650 5000 6400 5000
Wire Wire Line
	6650 5100 6400 5100
Wire Wire Line
	6650 5200 6400 5200
Wire Wire Line
	6650 5300 6400 5300
Entry Bus Bus
	6200 5600 6300 5500
Text Label 6650 5300 2    50   ~ 0
COM0
Text Label 6650 5200 2    50   ~ 0
COM1
Text Label 6650 5100 2    50   ~ 0
COM2
Text Label 6650 5000 2    50   ~ 0
COM3
Text Label 6650 4900 2    50   ~ 0
DEGF0
Text Label 6650 4800 2    50   ~ 0
PCBA0
Text Label 6650 4700 2    50   ~ 0
DEGF1
Text Label 6650 4600 2    50   ~ 0
PCBA1
Text Label 6650 4500 2    50   ~ 0
DEGF2
Text Label 6650 4400 2    50   ~ 0
PCBA2
Text Label 6650 4300 2    50   ~ 0
DEGF3
Text Label 6650 4200 2    50   ~ 0
PCBA3
Wire Wire Line
	5050 4100 5800 4100
Wire Wire Line
	5050 4200 5900 4200
Text Notes 6950 4050 0    100  Italic 20
Display
Wire Notes Line width 10
	6000 3800 8400 3800
Wire Notes Line width 10
	8400 3800 8400 5700
Wire Notes Line width 10
	8400 5700 6000 5700
Wire Notes Line width 10
	6000 5700 6000 3800
Text Notes 3450 3650 0    100  Italic 20
Processor
Wire Notes Line width 10
	2100 3400 5700 3400
Wire Notes Line width 10
	5700 3400 5700 5700
Wire Notes Line width 10
	5700 5700 2100 5700
Wire Notes Line width 10
	2100 5700 2100 3400
Connection ~ 6600 2650
Connection ~ 6400 2750
Wire Wire Line
	5800 2750 5800 4100
Wire Wire Line
	5800 2750 6400 2750
Wire Wire Line
	5900 2650 5900 4200
Wire Wire Line
	5900 2650 6600 2650
Wire Bus Line
	6200 5600 5350 5600
Connection ~ 5350 5600
Wire Wire Line
	5200 2250 5500 2250
Wire Wire Line
	3400 2450 3400 2400
Wire Wire Line
	4100 2450 4100 2400
Wire Wire Line
	3950 2400 4100 2400
Connection ~ 4100 2400
Wire Wire Line
	3550 2400 3400 2400
Connection ~ 3400 2400
Wire Wire Line
	3950 2100 4350 2100
Wire Wire Line
	4350 2250 4400 2250
Wire Wire Line
	4350 2100 4350 2250
Wire Wire Line
	3550 2100 3400 2100
Wire Wire Line
	3400 2100 3400 2200
Wire Wire Line
	2500 4700 2500 4300
Wire Wire Line
	2500 4300 2450 4300
Wire Wire Line
	3250 4650 3250 4700
$Comp
L passive:Resistor R4
U 1 1 5B951E4E
P 2900 4000
F 0 "R4" V 2850 3900 60  0000 R CNN
F 1 "100k" V 2950 3900 60  0000 R CNN
F 2 "passive_smd:R_0805" H 2900 4000 60  0001 C CNN
F 3 "" H 2900 4000 60  0000 C CNN
F 4 "Mouser" H 0   0   50  0001 C CNN "Distributer"
F 5 "755-ESR03EZPJ104" H 0   0   50  0001 C CNN "Distributer Part Number"
F 6 "ROHM Semiconductor" H 0   0   50  0001 C CNN "Manufacturer"
F 7 "ESR03EZPJ104" H 0   0   50  0001 C CNN "Manufacturer Part Number"
	1    2900 4000
	0    1    1    0   
$EndComp
Connection ~ 2900 4200
Wire Wire Line
	2900 4200 2450 4200
$Comp
L power:VCC #PWR0101
U 1 1 5B9560A5
P 2900 3800
F 0 "#PWR0101" H 2900 3940 20  0001 C CNN
F 1 "VCC" H 2901 3974 50  0000 C CNN
F 2 "" H 2900 3800 60  0000 C CNN
F 3 "" H 2900 3800 60  0000 C CNN
	1    2900 3800
	1    0    0    -1  
$EndComp
Wire Wire Line
	3250 4050 3250 4350
Connection ~ 3250 4050
$Comp
L power:GND #PWR0102
U 1 1 5B976F18
P 2500 4700
F 0 "#PWR0102" H 2500 4565 20  0001 C CNN
F 1 "GND" H 2500 4550 50  0000 C CNN
F 2 "" H 2500 4700 60  0000 C CNN
F 3 "" H 2500 4700 60  0000 C CNN
	1    2500 4700
	1    0    0    -1  
$EndComp
Wire Wire Line
	3400 2400 3150 2400
Wire Wire Line
	2600 2450 2800 2450
$Comp
L switch:DPDT SW1
U 1 1 5B9ACF27
P 3000 2350
F 0 "SW1" H 3000 2725 50  0000 C CNN
F 1 "EG_2207" H 3000 2634 50  0000 C CNN
F 2 "e-switch:EG_2207" H 3000 2350 50  0001 C CNN
F 3 "" H 3000 2350 50  0001 C CNN
F 4 "EG 2207" H 3000 2350 50  0001 C CNN "Manufacturer Part Number"
F 5 "612-EG2207" H 3000 2350 50  0001 C CNN "Distributer Part Number"
F 6 "C&K Switches" H 3000 2350 50  0001 C CNN "Manufacturer"
F 7 "Mouser" H 3000 2350 50  0001 C CNN "Distributer"
	1    3000 2350
	1    0    0    -1  
$EndComp
Wire Wire Line
	2800 2450 2800 2250
Wire Wire Line
	2800 2250 2850 2250
Connection ~ 2800 2450
Wire Wire Line
	2800 2450 2850 2450
Wire Wire Line
	3150 2200 3400 2200
Connection ~ 3400 2200
Wire Wire Line
	3400 2200 3400 2400
Wire Bus Line
	3350 4400 3350 5500
Wire Bus Line
	5350 4650 5350 5600
Wire Bus Line
	6300 4300 6300 5500
$EndSCHEMATC
